[
    {
        "name": "doctrine/lexer",
        "version": "1.2.1",
        "version_normalized": "1.2.1.0",
        "source": {
            "type": "git",
            "url": "https://github.com/doctrine/lexer.git",
            "reference": "e864bbf5904cb8f5bb334f99209b48018522f042"
        },
        "dist": {
            "type": "zip",
            "url": "https://api.github.com/repos/doctrine/lexer/zipball/e864bbf5904cb8f5bb334f99209b48018522f042",
            "reference": "e864bbf5904cb8f5bb334f99209b48018522f042",
            "shasum": ""
        },
        "require": {
            "php": "^7.2 || ^8.0"
        },
        "require-dev": {
            "doctrine/coding-standard": "^6.0",
            "phpstan/phpstan": "^0.11.8",
            "phpunit/phpunit": "^8.2"
        },
        "time": "2020-05-25T17:44:05+00:00",
        "type": "library",
        "extra": {
            "branch-alias": {
                "dev-master": "1.2.x-dev"
            }
        },
        "installation-source": "source",
        "autoload": {
            "psr-4": {
                "Doctrine\\Common\\Lexer\\": "lib/Doctrine/Common/Lexer"
            }
        },
        "notification-url": "https://packagist.org/downloads/",
        "license": [
            "MIT"
        ],
        "authors": [
            {
                "name": "Guilherme Blanco",
                "email": "guilhermeblanco@gmail.com"
            },
            {
                "name": "Roman Borschel",
                "email": "roman@code-factory.org"
            },
            {
                "name": "Johannes Schmitt",
                "email": "schmittjoh@gmail.com"
            }
        ],
        "description": "PHP Doctrine Lexer parser library that can be used in Top-Down, Recursive Descent Parsers.",
        "homepage": "https://www.doctrine-project.org/projects/lexer.html",
        "keywords": [
            "annotations",
            "docblock",
            "lexer",
            "parser",
            "php"
        ]
    },
    {
        "name": "egulias/email-validator",
        "version": "2.1.22",
        "version_normalized": "2.1.22.0",
        "source": {
            "type": "git",
            "url": "https://github.com/egulias/EmailValidator.git",
            "reference": "68e418ec08fbfc6f58f6fd2eea70ca8efc8cc7d5"
        },
        "dist": {
            "type": "zip",
            "url": "https://api.github.com/repos/egulias/EmailValidator/zipball/68e418ec08fbfc6f58f6fd2eea70ca8efc8cc7d5",
            "reference": "68e418ec08fbfc6f58f6fd2eea70ca8efc8cc7d5",
            "shasum": ""
        },
        "require": {
            "doctrine/lexer": "^1.0.1",
            "php": ">=5.5",
            "symfony/polyfill-intl-idn": "^1.10"
        },
        "require-dev": {
            "dominicsayers/isemail": "^3.0.7",
            "phpunit/phpunit": "^4.8.36|^7.5.15",
            "satooshi/php-coveralls": "^1.0.1"
        },
        "suggest": {
            "ext-intl": "PHP Internationalization Libraries are required to use the SpoofChecking validation"
        },
        "time": "2020-09-26T15:48:38+00:00",
        "type": "library",
        "extra": {
            "branch-alias": {
                "dev-master": "2.1.x-dev"
            }
        },
        "installation-source": "source",
        "autoload": {
            "psr-4": {
                "Egulias\\EmailValidator\\": "src"
            }
        },
        "notification-url": "https://packagist.org/downloads/",
        "license": [
            "MIT"
        ],
        "authors": [
            {
                "name": "Eduardo Gulias Davis"
            }
        ],
        "description": "A library for validating emails against several RFCs",
        "homepage": "https://github.com/egulias/EmailValidator",
        "keywords": [
            "email",
            "emailvalidation",
            "emailvalidator",
            "validation",
            "validator"
        ]
    },
    {
        "name": "league/flysystem",
        "version": "1.1.3",
        "version_normalized": "1.1.3.0",
        "source": {
            "type": "git",
            "url": "https://github.com/thephpleague/flysystem.git",
            "reference": "9be3b16c877d477357c015cec057548cf9b2a14a"
        },
        "dist": {
            "type": "zip",
            "url": "https://api.github.com/repos/thephpleague/flysystem/zipball/9be3b16c877d477357c015cec057548cf9b2a14a",
            "reference": "9be3b16c877d477357c015cec057548cf9b2a14a",
            "shasum": ""
        },
        "require": {
            "ext-fileinfo": "*",
            "league/mime-type-detection": "^1.3",
            "php": "^7.2.5 || ^8.0"
        },
        "conflict": {
            "league/flysystem-sftp": "<1.0.6"
        },
        "require-dev": {
            "phpspec/prophecy": "^1.11.1",
            "phpunit/phpunit": "^8.5.8"
        },
        "suggest": {
            "ext-fileinfo": "Required for MimeType",
            "ext-ftp": "Allows you to use FTP server storage",
            "ext-openssl": "Allows you to use FTPS server storage",
            "league/flysystem-aws-s3-v2": "Allows you to use S3 storage with AWS SDK v2",
            "league/flysystem-aws-s3-v3": "Allows you to use S3 storage with AWS SDK v3",
            "league/flysystem-azure": "Allows you to use Windows Azure Blob storage",
            "league/flysystem-cached-adapter": "Flysystem adapter decorator for metadata caching",
            "league/flysystem-eventable-filesystem": "Allows you to use EventableFilesystem",
            "league/flysystem-rackspace": "Allows you to use Rackspace Cloud Files",
            "league/flysystem-sftp": "Allows you to use SFTP server storage via phpseclib",
            "league/flysystem-webdav": "Allows you to use WebDAV storage",
            "league/flysystem-ziparchive": "Allows you to use ZipArchive adapter",
            "spatie/flysystem-dropbox": "Allows you to use Dropbox storage",
            "srmklive/flysystem-dropbox-v2": "Allows you to use Dropbox storage for PHP 5 applications"
        },
        "time": "2020-08-23T07:39:11+00:00",
        "type": "library",
        "extra": {
            "branch-alias": {
                "dev-master": "1.1-dev"
            }
        },
        "installation-source": "source",
        "autoload": {
            "psr-4": {
                "League\\Flysystem\\": "src/"
            }
        },
        "notification-url": "https://packagist.org/downloads/",
        "license": [
            "MIT"
        ],
        "authors": [
            {
                "name": "Frank de Jonge",
                "email": "info@frenky.net"
            }
        ],
        "description": "Filesystem abstraction: Many filesystems, one API.",
        "keywords": [
            "Cloud Files",
            "WebDAV",
            "abstraction",
            "aws",
            "cloud",
            "copy.com",
            "dropbox",
            "file systems",
            "files",
            "filesystem",
            "filesystems",
            "ftp",
            "rackspace",
            "remote",
            "s3",
            "sftp",
            "storage"
        ]
    },
    {
        "name": "league/mime-type-detection",
        "version": "1.5.0",
        "version_normalized": "1.5.0.0",
        "source": {
            "type": "git",
            "url": "https://github.com/thephpleague/mime-type-detection.git",
            "reference": "ea2fbfc988bade315acd5967e6d02274086d0f28"
        },
        "dist": {
            "type": "zip",
            "url": "https://api.github.com/repos/thephpleague/mime-type-detection/zipball/ea2fbfc988bade315acd5967e6d02274086d0f28",
            "reference": "ea2fbfc988bade315acd5967e6d02274086d0f28",
            "shasum": ""
        },
        "require": {
            "ext-fileinfo": "*",
            "php": "^7.2 || ^8.0"
        },
        "require-dev": {
            "phpstan/phpstan": "^0.12.36",
            "phpunit/phpunit": "^8.5.8"
        },
        "time": "2020-09-21T18:10:53+00:00",
        "type": "library",
        "installation-source": "source",
        "autoload": {
            "psr-4": {
                "League\\MimeTypeDetection\\": "src"
            }
        },
        "notification-url": "https://packagist.org/downloads/",
        "license": [
            "MIT"
        ],
        "authors": [
            {
                "name": "Frank de Jonge",
                "email": "info@frankdejonge.nl"
            }
        ],
        "description": "Mime-type detection for Flysystem"
    },
    {
        "name": "monolog/monolog",
        "version": "2.1.1",
        "version_normalized": "2.1.1.0",
        "source": {
            "type": "git",
            "url": "https://github.com/Seldaek/monolog.git",
            "reference": "f9eee5cec93dfb313a38b6b288741e84e53f02d5"
        },
        "dist": {
            "type": "zip",
            "url": "https://api.github.com/repos/Seldaek/monolog/zipball/f9eee5cec93dfb313a38b6b288741e84e53f02d5",
            "reference": "f9eee5cec93dfb313a38b6b288741e84e53f02d5",
            "shasum": ""
        },
        "require": {
            "php": ">=7.2",
            "psr/log": "^1.0.1"
        },
        "provide": {
            "psr/log-implementation": "1.0.0"
        },
        "require-dev": {
            "aws/aws-sdk-php": "^2.4.9 || ^3.0",
            "doctrine/couchdb": "~1.0@dev",
            "elasticsearch/elasticsearch": "^6.0",
            "graylog2/gelf-php": "^1.4.2",
            "php-amqplib/php-amqplib": "~2.4",
            "php-console/php-console": "^3.1.3",
            "php-parallel-lint/php-parallel-lint": "^1.0",
            "phpspec/prophecy": "^1.6.1",
            "phpunit/phpunit": "^8.5",
            "predis/predis": "^1.1",
            "rollbar/rollbar": "^1.3",
            "ruflin/elastica": ">=0.90 <3.0",
            "swiftmailer/swiftmailer": "^5.3|^6.0"
        },
        "suggest": {
            "aws/aws-sdk-php": "Allow sending log messages to AWS services like DynamoDB",
            "doctrine/couchdb": "Allow sending log messages to a CouchDB server",
            "elasticsearch/elasticsearch": "Allow sending log messages to an Elasticsearch server via official client",
            "ext-amqp": "Allow sending log messages to an AMQP server (1.0+ required)",
            "ext-mbstring": "Allow to work properly with unicode symbols",
            "ext-mongodb": "Allow sending log messages to a MongoDB server (via driver)",
            "graylog2/gelf-php": "Allow sending log messages to a GrayLog2 server",
            "mongodb/mongodb": "Allow sending log messages to a MongoDB server (via library)",
            "php-amqplib/php-amqplib": "Allow sending log messages to an AMQP server using php-amqplib",
            "php-console/php-console": "Allow sending log messages to Google Chrome",
            "rollbar/rollbar": "Allow sending log messages to Rollbar",
            "ruflin/elastica": "Allow sending log messages to an Elastic Search server"
        },
        "time": "2020-07-23T08:41:23+00:00",
        "type": "library",
        "extra": {
            "branch-alias": {
                "dev-master": "2.x-dev"
            }
        },
        "installation-source": "source",
        "autoload": {
            "psr-4": {
                "Monolog\\": "src/Monolog"
            }
        },
        "notification-url": "https://packagist.org/downloads/",
        "license": [
            "MIT"
        ],
        "authors": [
            {
                "name": "Jordi Boggiano",
                "email": "j.boggiano@seld.be",
                "homepage": "http://seld.be"
            }
        ],
        "description": "Sends your logs to files, sockets, inboxes, databases and various web services",
        "homepage": "http://github.com/Seldaek/monolog",
        "keywords": [
            "log",
            "logging",
            "psr-3"
        ]
    },
    {
        "name": "nesbot/carbon",
        "version": "2.41.3",
        "version_normalized": "2.41.3.0",
        "source": {
            "type": "git",
            "url": "https://github.com/briannesbitt/Carbon.git",
            "reference": "e148788eeae9b9b7b87996520358b86faad37b52"
        },
        "dist": {
            "type": "zip",
            "url": "https://api.github.com/repos/briannesbitt/Carbon/zipball/e148788eeae9b9b7b87996520358b86faad37b52",
            "reference": "e148788eeae9b9b7b87996520358b86faad37b52",
            "shasum": ""
        },
        "require": {
            "ext-json": "*",
            "php": "^7.1.8 || ^8.0",
            "symfony/polyfill-mbstring": "^1.0",
            "symfony/translation": "^3.4 || ^4.0 || ^5.0"
        },
        "require-dev": {
            "doctrine/orm": "^2.7",
            "friendsofphp/php-cs-fixer": "^2.14 || ^3.0",
            "kylekatarnls/multi-tester": "^2.0",
            "phpmd/phpmd": "^2.9",
            "phpstan/extension-installer": "^1.0",
            "phpstan/phpstan": "^0.12.35",
            "phpunit/phpunit": "^7.5 || ^8.0",
            "squizlabs/php_codesniffer": "^3.4"
        },
        "time": "2020-10-12T20:36:09+00:00",
        "bin": [
            "bin/carbon"
        ],
        "type": "library",
        "extra": {
            "branch-alias": {
                "dev-master": "2.x-dev",
                "dev-3.x": "3.x-dev"
            },
            "laravel": {
                "providers": [
                    "Carbon\\Laravel\\ServiceProvider"
                ]
            },
            "phpstan": {
                "includes": [
                    "extension.neon"
                ]
            }
        },
        "installation-source": "source",
        "autoload": {
            "psr-4": {
                "Carbon\\": "src/Carbon/"
            }
        },
        "notification-url": "https://packagist.org/downloads/",
        "license": [
            "MIT"
        ],
        "authors": [
            {
                "name": "Brian Nesbitt",
                "email": "brian@nesbot.com",
                "homepage": "http://nesbot.com"
            },
            {
                "name": "kylekatarnls",
                "homepage": "http://github.com/kylekatarnls"
            }
        ],
        "description": "An API extension for DateTime that supports 281 different languages.",
        "homepage": "http://carbon.nesbot.com",
        "keywords": [
            "date",
            "datetime",
            "time"
        ]
    },
    {
        "name": "opis/closure",
        "version": "3.6.0",
        "version_normalized": "3.6.0.0",
        "source": {
            "type": "git",
            "url": "https://github.com/opis/closure.git",
            "reference": "c547f8262a5fa9ff507bd06cc394067b83a75085"
        },
        "dist": {
            "type": "zip",
            "url": "https://api.github.com/repos/opis/closure/zipball/c547f8262a5fa9ff507bd06cc394067b83a75085",
            "reference": "c547f8262a5fa9ff507bd06cc394067b83a75085",
            "shasum": ""
        },
        "require": {
            "php": "^5.4 || ^7.0 || ^8.0"
        },
        "require-dev": {
            "jeremeamia/superclosure": "^2.0",
            "phpunit/phpunit": "^4.0 || ^5.0 || ^6.0 || ^7.0 || ^8.0 || ^9.0"
        },
        "time": "2020-10-11T21:42:15+00:00",
        "type": "library",
        "extra": {
            "branch-alias": {
                "dev-master": "3.6.x-dev"
            }
        },
        "installation-source": "source",
        "autoload": {
            "psr-4": {
                "Opis\\Closure\\": "src/"
            },
            "files": [
                "functions.php"
            ]
        },
        "notification-url": "https://packagist.org/downloads/",
        "license": [
            "MIT"
        ],
        "authors": [
            {
                "name": "Marius Sarca",
                "email": "marius.sarca@gmail.com"
            },
            {
                "name": "Sorin Sarca",
                "email": "sarca_sorin@hotmail.com"
            }
        ],
        "description": "A library that can be used to serialize closures (anonymous functions) and arbitrary objects.",
        "homepage": "https://opis.io/closure",
        "keywords": [
            "anonymous functions",
            "closure",
            "function",
            "serializable",
            "serialization",
            "serialize"
        ]
    },
    {
        "name": "paragonie/random_compat",
        "version": "v9.99.99",
        "version_normalized": "9.99.99.0",
        "source": {
            "type": "git",
            "url": "https://github.com/paragonie/random_compat.git",
            "reference": "84b4dfb120c6f9b4ff7b3685f9b8f1aa365a0c95"
        },
        "dist": {
            "type": "zip",
            "url": "https://api.github.com/repos/paragonie/random_compat/zipball/84b4dfb120c6f9b4ff7b3685f9b8f1aa365a0c95",
            "reference": "84b4dfb120c6f9b4ff7b3685f9b8f1aa365a0c95",
            "shasum": ""
        },
        "require": {
            "php": "^7"
        },
        "require-dev": {
            "phpunit/phpunit": "4.*|5.*",
            "vimeo/psalm": "^1"
        },
        "suggest": {
            "ext-libsodium": "Provides a modern crypto API that can be used to generate random bytes."
        },
        "time": "2018-07-02T15:55:56+00:00",
        "type": "library",
        "installation-source": "source",
        "notification-url": "https://packagist.org/downloads/",
        "license": [
            "MIT"
        ],
        "authors": [
            {
                "name": "Paragon Initiative Enterprises",
                "email": "security@paragonie.com",
                "homepage": "https://paragonie.com"
            }
        ],
        "description": "PHP 5.x polyfill for random_bytes() and random_int() from PHP 7",
        "keywords": [
            "csprng",
            "polyfill",
            "pseudorandom",
            "random"
        ]
    },
    {
        "name": "phpoption/phpoption",
        "version": "1.7.5",
        "version_normalized": "1.7.5.0",
        "source": {
            "type": "git",
            "url": "https://github.com/schmittjoh/php-option.git",
            "reference": "994ecccd8f3283ecf5ac33254543eb0ac946d525"
        },
        "dist": {
            "type": "zip",
            "url": "https://api.github.com/repos/schmittjoh/php-option/zipball/994ecccd8f3283ecf5ac33254543eb0ac946d525",
            "reference": "994ecccd8f3283ecf5ac33254543eb0ac946d525",
            "shasum": ""
        },
        "require": {
            "php": "^5.5.9 || ^7.0 || ^8.0"
        },
        "require-dev": {
            "bamarni/composer-bin-plugin": "^1.4.1",
            "phpunit/phpunit": "^4.8.35 || ^5.7.27 || ^6.5.6 || ^7.0 || ^8.0 || ^9.0"
        },
        "time": "2020-07-20T17:29:33+00:00",
        "type": "library",
        "extra": {
            "branch-alias": {
                "dev-master": "1.7-dev"
            }
        },
        "installation-source": "source",
        "autoload": {
            "psr-4": {
                "PhpOption\\": "src/PhpOption/"
            }
        },
        "notification-url": "https://packagist.org/downloads/",
        "license": [
            "Apache-2.0"
        ],
        "authors": [
            {
                "name": "Johannes M. Schmitt",
                "email": "schmittjoh@gmail.com"
            },
            {
                "name": "Graham Campbell",
                "email": "graham@alt-three.com"
            }
        ],
        "description": "Option Type for PHP",
        "keywords": [
            "language",
            "option",
            "php",
            "type"
        ]
    },
    {
        "name": "psr/container",
        "version": "1.0.0",
        "version_normalized": "1.0.0.0",
        "source": {
            "type": "git",
            "url": "https://github.com/php-fig/container.git",
            "reference": "b7ce3b176482dbbc1245ebf52b181af44c2cf55f"
        },
        "dist": {
            "type": "zip",
            "url": "https://api.github.com/repos/php-fig/container/zipball/b7ce3b176482dbbc1245ebf52b181af44c2cf55f",
            "reference": "b7ce3b176482dbbc1245ebf52b181af44c2cf55f",
            "shasum": ""
        },
        "require": {
            "php": ">=5.3.0"
        },
        "time": "2017-02-14T16:28:37+00:00",
        "type": "library",
        "extra": {
            "branch-alias": {
                "dev-master": "1.0.x-dev"
            }
        },
        "installation-source": "source",
        "autoload": {
            "psr-4": {
                "Psr\\Container\\": "src/"
            }
        },
        "notification-url": "https://packagist.org/downloads/",
        "license": [
            "MIT"
        ],
        "authors": [
            {
                "name": "PHP-FIG",
                "homepage": "http://www.php-fig.org/"
            }
        ],
        "description": "Common Container Interface (PHP FIG PSR-11)",
        "homepage": "https://github.com/php-fig/container",
        "keywords": [
            "PSR-11",
            "container",
            "container-interface",
            "container-interop",
            "psr"
        ]
    },
    {
        "name": "psr/log",
        "version": "1.1.3",
        "version_normalized": "1.1.3.0",
        "source": {
            "type": "git",
            "url": "https://github.com/php-fig/log.git",
            "reference": "0f73288fd15629204f9d42b7055f72dacbe811fc"
        },
        "dist": {
            "type": "zip",
            "url": "https://api.github.com/repos/php-fig/log/zipball/0f73288fd15629204f9d42b7055f72dacbe811fc",
            "reference": "0f73288fd15629204f9d42b7055f72dacbe811fc",
            "shasum": ""
        },
        "require": {
            "php": ">=5.3.0"
        },
        "time": "2020-03-23T09:12:05+00:00",
        "type": "library",
        "extra": {
            "branch-alias": {
                "dev-master": "1.1.x-dev"
            }
        },
        "installation-source": "source",
        "autoload": {
            "psr-4": {
                "Psr\\Log\\": "Psr/Log/"
            }
        },
        "notification-url": "https://packagist.org/downloads/",
        "license": [
            "MIT"
        ],
        "authors": [
            {
                "name": "PHP-FIG",
                "homepage": "http://www.php-fig.org/"
            }
        ],
        "description": "Common interface for logging libraries",
        "homepage": "https://github.com/php-fig/log",
        "keywords": [
            "log",
            "psr",
            "psr-3"
        ]
    },
    {
        "name": "psr/simple-cache",
        "version": "1.0.1",
        "version_normalized": "1.0.1.0",
        "source": {
            "type": "git",
            "url": "https://github.com/php-fig/simple-cache.git",
            "reference": "408d5eafb83c57f6365a3ca330ff23aa4a5fa39b"
        },
        "dist": {
            "type": "zip",
            "url": "https://api.github.com/repos/php-fig/simple-cache/zipball/408d5eafb83c57f6365a3ca330ff23aa4a5fa39b",
            "reference": "408d5eafb83c57f6365a3ca330ff23aa4a5fa39b",
            "shasum": ""
        },
        "require": {
            "php": ">=5.3.0"
        },
        "time": "2017-10-23T01:57:42+00:00",
        "type": "library",
        "extra": {
            "branch-alias": {
                "dev-master": "1.0.x-dev"
            }
        },
        "installation-source": "source",
        "autoload": {
            "psr-4": {
                "Psr\\SimpleCache\\": "src/"
            }
        },
        "notification-url": "https://packagist.org/downloads/",
        "license": [
            "MIT"
        ],
        "authors": [
            {
                "name": "PHP-FIG",
                "homepage": "http://www.php-fig.org/"
            }
        ],
        "description": "Common interfaces for simple caching",
        "keywords": [
            "cache",
            "caching",
            "psr",
            "psr-16",
            "simple-cache"
        ]
    },
    {
        "name": "ramsey/uuid",
        "version": "3.9.3",
        "version_normalized": "3.9.3.0",
        "source": {
            "type": "git",
            "url": "https://github.com/ramsey/uuid.git",
            "reference": "7e1633a6964b48589b142d60542f9ed31bd37a92"
        },
        "dist": {
            "type": "zip",
            "url": "https://api.github.com/repos/ramsey/uuid/zipball/7e1633a6964b48589b142d60542f9ed31bd37a92",
            "reference": "7e1633a6964b48589b142d60542f9ed31bd37a92",
            "shasum": ""
        },
        "require": {
            "ext-json": "*",
            "paragonie/random_compat": "^1 | ^2 | 9.99.99",
            "php": "^5.4 | ^7 | ^8",
            "symfony/polyfill-ctype": "^1.8"
        },
        "replace": {
            "rhumsaa/uuid": "self.version"
        },
        "require-dev": {
            "codeception/aspect-mock": "^1 | ^2",
            "doctrine/annotations": "^1.2",
            "goaop/framework": "1.0.0-alpha.2 | ^1 | ^2.1",
            "jakub-onderka/php-parallel-lint": "^1",
            "mockery/mockery": "^0.9.11 | ^1",
            "moontoast/math": "^1.1",
            "paragonie/random-lib": "^2",
            "php-mock/php-mock-phpunit": "^0.3 | ^1.1",
            "phpunit/phpunit": "^4.8 | ^5.4 | ^6.5",
            "squizlabs/php_codesniffer": "^3.5"
        },
        "suggest": {
            "ext-ctype": "Provides support for PHP Ctype functions",
            "ext-libsodium": "Provides the PECL libsodium extension for use with the SodiumRandomGenerator",
            "ext-openssl": "Provides the OpenSSL extension for use with the OpenSslGenerator",
            "ext-uuid": "Provides the PECL UUID extension for use with the PeclUuidTimeGenerator and PeclUuidRandomGenerator",
            "moontoast/math": "Provides support for converting UUID to 128-bit integer (in string form).",
            "paragonie/random-lib": "Provides RandomLib for use with the RandomLibAdapter",
            "ramsey/uuid-console": "A console application for generating UUIDs with ramsey/uuid",
            "ramsey/uuid-doctrine": "Allows the use of Ramsey\\Uuid\\Uuid as Doctrine field type."
        },
        "time": "2020-02-21T04:36:14+00:00",
        "type": "library",
        "extra": {
            "branch-alias": {
                "dev-master": "3.x-dev"
            }
        },
        "installation-source": "source",
        "autoload": {
            "psr-4": {
                "Ramsey\\Uuid\\": "src/"
            },
            "files": [
                "src/functions.php"
            ]
        },
        "notification-url": "https://packagist.org/downloads/",
        "license": [
            "MIT"
        ],
        "authors": [
            {
                "name": "Ben Ramsey",
                "email": "ben@benramsey.com",
                "homepage": "https://benramsey.com"
            },
            {
                "name": "Marijn Huizendveld",
                "email": "marijn.huizendveld@gmail.com"
            },
            {
                "name": "Thibaud Fabre",
                "email": "thibaud@aztech.io"
            }
        ],
        "description": "Formerly rhumsaa/uuid. A PHP 5.4+ library for generating RFC 4122 version 1, 3, 4, and 5 universally unique identifiers (UUID).",
        "homepage": "https://github.com/ramsey/uuid",
        "keywords": [
            "guid",
            "identifier",
            "uuid"
        ]
    },
    {
        "name": "swiftmailer/swiftmailer",
        "version": "v6.2.3",
        "version_normalized": "6.2.3.0",
        "source": {
            "type": "git",
            "url": "https://github.com/swiftmailer/swiftmailer.git",
            "reference": "149cfdf118b169f7840bbe3ef0d4bc795d1780c9"
        },
        "dist": {
            "type": "zip",
            "url": "https://api.github.com/repos/swiftmailer/swiftmailer/zipball/149cfdf118b169f7840bbe3ef0d4bc795d1780c9",
            "reference": "149cfdf118b169f7840bbe3ef0d4bc795d1780c9",
            "shasum": ""
        },
        "require": {
            "egulias/email-validator": "~2.0",
            "php": ">=7.0.0",
            "symfony/polyfill-iconv": "^1.0",
            "symfony/polyfill-intl-idn": "^1.10",
            "symfony/polyfill-mbstring": "^1.0"
        },
        "require-dev": {
            "mockery/mockery": "~0.9.1",
            "symfony/phpunit-bridge": "^3.4.19|^4.1.8"
        },
        "suggest": {
            "ext-intl": "Needed to support internationalized email addresses",
            "true/punycode": "Needed to support internationalized email addresses, if ext-intl is not installed"
        },
        "time": "2019-11-12T09:31:26+00:00",
        "type": "library",
        "extra": {
            "branch-alias": {
                "dev-master": "6.2-dev"
            }
        },
        "installation-source": "source",
        "autoload": {
            "files": [
                "lib/swift_required.php"
            ]
        },
        "notification-url": "https://packagist.org/downloads/",
        "license": [
            "MIT"
        ],
        "authors": [
            {
                "name": "Chris Corbyn"
            },
            {
                "name": "Fabien Potencier",
                "email": "fabien@symfony.com"
            }
        ],
        "description": "Swiftmailer, free feature-rich PHP mailer",
        "homepage": "https://swiftmailer.symfony.com",
        "keywords": [
            "email",
            "mail",
            "mailer"
        ]
    },
    {
        "name": "symfony/console",
        "version": "v4.4.15",
        "version_normalized": "4.4.15.0",
        "source": {
            "type": "git",
            "url": "https://github.com/symfony/console.git",
            "reference": "90933b39c7b312fc3ceaa1ddeac7eb48cb953124"
        },
        "dist": {
            "type": "zip",
            "url": "https://api.github.com/repos/symfony/console/zipball/90933b39c7b312fc3ceaa1ddeac7eb48cb953124",
            "reference": "90933b39c7b312fc3ceaa1ddeac7eb48cb953124",
            "shasum": ""
        },
        "require": {
            "php": ">=7.1.3",
            "symfony/polyfill-mbstring": "~1.0",
            "symfony/polyfill-php73": "^1.8",
            "symfony/polyfill-php80": "^1.15",
            "symfony/service-contracts": "^1.1|^2"
        },
        "conflict": {
            "symfony/dependency-injection": "<3.4",
            "symfony/event-dispatcher": "<4.3|>=5",
            "symfony/lock": "<4.4",
            "symfony/process": "<3.3"
        },
        "provide": {
            "psr/log-implementation": "1.0"
        },
        "require-dev": {
            "psr/log": "~1.0",
            "symfony/config": "^3.4|^4.0|^5.0",
            "symfony/dependency-injection": "^3.4|^4.0|^5.0",
            "symfony/event-dispatcher": "^4.3",
            "symfony/lock": "^4.4|^5.0",
            "symfony/process": "^3.4|^4.0|^5.0",
            "symfony/var-dumper": "^4.3|^5.0"
        },
        "suggest": {
            "psr/log": "For using the console logger",
            "symfony/event-dispatcher": "",
            "symfony/lock": "",
            "symfony/process": ""
        },
        "time": "2020-09-15T07:58:55+00:00",
        "type": "library",
        "extra": {
            "branch-alias": {
                "dev-master": "4.4-dev"
            }
        },
        "installation-source": "source",
        "autoload": {
            "psr-4": {
                "Symfony\\Component\\Console\\": ""
            },
            "exclude-from-classmap": [
                "/Tests/"
            ]
        },
        "notification-url": "https://packagist.org/downloads/",
        "license": [
            "MIT"
        ],
        "authors": [
            {
                "name": "Fabien Potencier",
                "email": "fabien@symfony.com"
            },
            {
                "name": "Symfony Community",
                "homepage": "https://symfony.com/contributors"
            }
        ],
        "description": "Symfony Console Component",
        "homepage": "https://symfony.com"
    },
    {
        "name": "symfony/css-selector",
        "version": "v5.1.7",
        "version_normalized": "5.1.7.0",
        "source": {
            "type": "git",
            "url": "https://github.com/symfony/css-selector.git",
            "reference": "e544e24472d4c97b2d11ade7caacd446727c6bf9"
        },
        "dist": {
            "type": "zip",
            "url": "https://api.github.com/repos/symfony/css-selector/zipball/e544e24472d4c97b2d11ade7caacd446727c6bf9",
            "reference": "e544e24472d4c97b2d11ade7caacd446727c6bf9",
            "shasum": ""
        },
        "require": {
            "php": ">=7.2.5"
        },
        "time": "2020-05-20T17:43:50+00:00",
        "type": "library",
        "extra": {
            "branch-alias": {
                "dev-master": "5.1-dev"
            }
        },
        "installation-source": "source",
        "autoload": {
            "psr-4": {
                "Symfony\\Component\\CssSelector\\": ""
            },
            "exclude-from-classmap": [
                "/Tests/"
            ]
        },
        "notification-url": "https://packagist.org/downloads/",
        "license": [
            "MIT"
        ],
        "authors": [
            {
                "name": "Fabien Potencier",
                "email": "fabien@symfony.com"
            },
            {
                "name": "Jean-François Simon",
                "email": "jeanfrancois.simon@sensiolabs.com"
            },
            {
                "name": "Symfony Community",
                "homepage": "https://symfony.com/contributors"
            }
        ],
        "description": "Symfony CssSelector Component",
        "homepage": "https://symfony.com"
    },
    {
        "name": "symfony/debug",
        "version": "v4.4.15",
        "version_normalized": "4.4.15.0",
        "source": {
            "type": "git",
            "url": "https://github.com/symfony/debug.git",
            "reference": "726b85e69342e767d60e3853b98559a68ff74183"
        },
        "dist": {
            "type": "zip",
            "url": "https://api.github.com/repos/symfony/debug/zipball/726b85e69342e767d60e3853b98559a68ff74183",
            "reference": "726b85e69342e767d60e3853b98559a68ff74183",
            "shasum": ""
        },
        "require": {
            "php": ">=7.1.3",
            "psr/log": "~1.0",
            "symfony/polyfill-php80": "^1.15"
        },
        "conflict": {
            "symfony/http-kernel": "<3.4"
        },
        "require-dev": {
            "symfony/http-kernel": "^3.4|^4.0|^5.0"
        },
        "time": "2020-09-09T05:20:36+00:00",
        "type": "library",
        "extra": {
            "branch-alias": {
                "dev-master": "4.4-dev"
            }
        },
        "installation-source": "source",
        "autoload": {
            "psr-4": {
                "Symfony\\Component\\Debug\\": ""
            },
            "exclude-from-classmap": [
                "/Tests/"
            ]
        },
        "notification-url": "https://packagist.org/downloads/",
        "license": [
            "MIT"
        ],
        "authors": [
            {
                "name": "Fabien Potencier",
                "email": "fabien@symfony.com"
            },
            {
                "name": "Symfony Community",
                "homepage": "https://symfony.com/contributors"
            }
        ],
        "description": "Symfony Debug Component",
        "homepage": "https://symfony.com"
    },
    {
        "name": "symfony/error-handler",
        "version": "v4.4.15",
        "version_normalized": "4.4.15.0",
        "source": {
            "type": "git",
            "url": "https://github.com/symfony/error-handler.git",
            "reference": "c8be4a5c70af70fec82e762dd93e3bbcf95c035f"
        },
        "dist": {
            "type": "zip",
            "url": "https://api.github.com/repos/symfony/error-handler/zipball/c8be4a5c70af70fec82e762dd93e3bbcf95c035f",
            "reference": "c8be4a5c70af70fec82e762dd93e3bbcf95c035f",
            "shasum": ""
        },
        "require": {
            "php": ">=7.1.3",
            "psr/log": "~1.0",
            "symfony/debug": "^4.4.5",
            "symfony/polyfill-php80": "^1.15",
            "symfony/var-dumper": "^4.4|^5.0"
        },
        "require-dev": {
            "symfony/http-kernel": "^4.4|^5.0",
            "symfony/serializer": "^4.4|^5.0"
        },
        "time": "2020-10-01T16:21:20+00:00",
        "type": "library",
        "extra": {
            "branch-alias": {
                "dev-master": "4.4-dev"
            }
        },
        "installation-source": "source",
        "autoload": {
            "psr-4": {
                "Symfony\\Component\\ErrorHandler\\": ""
            },
            "exclude-from-classmap": [
                "/Tests/"
            ]
        },
        "notification-url": "https://packagist.org/downloads/",
        "license": [
            "MIT"
        ],
        "authors": [
            {
                "name": "Fabien Potencier",
                "email": "fabien@symfony.com"
            },
            {
                "name": "Symfony Community",
                "homepage": "https://symfony.com/contributors"
            }
        ],
        "description": "Symfony ErrorHandler Component",
        "homepage": "https://symfony.com"
    },
    {
        "name": "symfony/event-dispatcher",
        "version": "v4.4.15",
        "version_normalized": "4.4.15.0",
        "source": {
            "type": "git",
            "url": "https://github.com/symfony/event-dispatcher.git",
            "reference": "e17bb5e0663dc725f7cdcafc932132735b4725cd"
        },
        "dist": {
            "type": "zip",
            "url": "https://api.github.com/repos/symfony/event-dispatcher/zipball/e17bb5e0663dc725f7cdcafc932132735b4725cd",
            "reference": "e17bb5e0663dc725f7cdcafc932132735b4725cd",
            "shasum": ""
        },
        "require": {
            "php": ">=7.1.3",
            "symfony/event-dispatcher-contracts": "^1.1"
        },
        "conflict": {
            "symfony/dependency-injection": "<3.4"
        },
        "provide": {
            "psr/event-dispatcher-implementation": "1.0",
            "symfony/event-dispatcher-implementation": "1.1"
        },
        "require-dev": {
            "psr/log": "~1.0",
            "symfony/config": "^3.4|^4.0|^5.0",
            "symfony/dependency-injection": "^3.4|^4.0|^5.0",
            "symfony/error-handler": "~3.4|~4.4",
            "symfony/expression-language": "^3.4|^4.0|^5.0",
            "symfony/http-foundation": "^3.4|^4.0|^5.0",
            "symfony/service-contracts": "^1.1|^2",
            "symfony/stopwatch": "^3.4|^4.0|^5.0"
        },
        "suggest": {
            "symfony/dependency-injection": "",
            "symfony/http-kernel": ""
        },
        "time": "2020-09-18T14:07:46+00:00",
        "type": "library",
        "extra": {
            "branch-alias": {
                "dev-master": "4.4-dev"
            }
        },
        "installation-source": "source",
        "autoload": {
            "psr-4": {
                "Symfony\\Component\\EventDispatcher\\": ""
            },
            "exclude-from-classmap": [
                "/Tests/"
            ]
        },
        "notification-url": "https://packagist.org/downloads/",
        "license": [
            "MIT"
        ],
        "authors": [
            {
                "name": "Fabien Potencier",
                "email": "fabien@symfony.com"
            },
            {
                "name": "Symfony Community",
                "homepage": "https://symfony.com/contributors"
            }
        ],
        "description": "Symfony EventDispatcher Component",
        "homepage": "https://symfony.com"
    },
    {
        "name": "symfony/event-dispatcher-contracts",
        "version": "v1.1.9",
        "version_normalized": "1.1.9.0",
        "source": {
            "type": "git",
            "url": "https://github.com/symfony/event-dispatcher-contracts.git",
            "reference": "84e23fdcd2517bf37aecbd16967e83f0caee25a7"
        },
        "dist": {
            "type": "zip",
            "url": "https://api.github.com/repos/symfony/event-dispatcher-contracts/zipball/84e23fdcd2517bf37aecbd16967e83f0caee25a7",
            "reference": "84e23fdcd2517bf37aecbd16967e83f0caee25a7",
            "shasum": ""
        },
        "require": {
            "php": ">=7.1.3"
        },
        "suggest": {
            "psr/event-dispatcher": "",
            "symfony/event-dispatcher-implementation": ""
        },
        "time": "2020-07-06T13:19:58+00:00",
        "type": "library",
        "extra": {
            "branch-alias": {
                "dev-master": "1.1-dev"
            },
            "thanks": {
                "name": "symfony/contracts",
                "url": "https://github.com/symfony/contracts"
            }
        },
        "installation-source": "source",
        "autoload": {
            "psr-4": {
                "Symfony\\Contracts\\EventDispatcher\\": ""
            }
        },
        "notification-url": "https://packagist.org/downloads/",
        "license": [
            "MIT"
        ],
        "authors": [
            {
                "name": "Nicolas Grekas",
                "email": "p@tchwork.com"
            },
            {
                "name": "Symfony Community",
                "homepage": "https://symfony.com/contributors"
            }
        ],
        "description": "Generic abstractions related to dispatching event",
        "homepage": "https://symfony.com",
        "keywords": [
            "abstractions",
            "contracts",
            "decoupling",
            "interfaces",
            "interoperability",
            "standards"
        ]
    },
    {
        "name": "symfony/finder",
        "version": "v4.4.15",
        "version_normalized": "4.4.15.0",
        "source": {
            "type": "git",
            "url": "https://github.com/symfony/finder.git",
            "reference": "60d08560f9aa72997c44077c40d47aa28a963230"
        },
        "dist": {
            "type": "zip",
            "url": "https://api.github.com/repos/symfony/finder/zipball/60d08560f9aa72997c44077c40d47aa28a963230",
            "reference": "60d08560f9aa72997c44077c40d47aa28a963230",
            "shasum": ""
        },
        "require": {
            "php": ">=7.1.3"
        },
        "time": "2020-10-02T07:34:48+00:00",
        "type": "library",
        "extra": {
            "branch-alias": {
                "dev-master": "4.4-dev"
            }
        },
        "installation-source": "source",
        "autoload": {
            "psr-4": {
                "Symfony\\Component\\Finder\\": ""
            },
            "exclude-from-classmap": [
                "/Tests/"
            ]
        },
        "notification-url": "https://packagist.org/downloads/",
        "license": [
            "MIT"
        ],
        "authors": [
            {
                "name": "Fabien Potencier",
                "email": "fabien@symfony.com"
            },
            {
                "name": "Symfony Community",
                "homepage": "https://symfony.com/contributors"
            }
        ],
        "description": "Symfony Finder Component",
        "homepage": "https://symfony.com"
    },
    {
        "name": "symfony/http-client-contracts",
        "version": "v2.2.0",
        "version_normalized": "2.2.0.0",
        "source": {
            "type": "git",
            "url": "https://github.com/symfony/http-client-contracts.git",
            "reference": "3a5d0fe7908daaa23e3dbf4cee3ba4bfbb19fdd3"
        },
        "dist": {
            "type": "zip",
            "url": "https://api.github.com/repos/symfony/http-client-contracts/zipball/3a5d0fe7908daaa23e3dbf4cee3ba4bfbb19fdd3",
            "reference": "3a5d0fe7908daaa23e3dbf4cee3ba4bfbb19fdd3",
            "shasum": ""
        },
        "require": {
            "php": ">=7.2.5"
        },
        "suggest": {
            "symfony/http-client-implementation": ""
        },
        "time": "2020-09-07T11:33:47+00:00",
        "type": "library",
        "extra": {
            "branch-alias": {
                "dev-master": "2.2-dev"
            },
            "thanks": {
                "name": "symfony/contracts",
                "url": "https://github.com/symfony/contracts"
            }
        },
        "installation-source": "source",
        "autoload": {
            "psr-4": {
                "Symfony\\Contracts\\HttpClient\\": ""
            }
        },
        "notification-url": "https://packagist.org/downloads/",
        "license": [
            "MIT"
        ],
        "authors": [
            {
                "name": "Nicolas Grekas",
                "email": "p@tchwork.com"
            },
            {
                "name": "Symfony Community",
                "homepage": "https://symfony.com/contributors"
            }
        ],
        "description": "Generic abstractions related to HTTP clients",
        "homepage": "https://symfony.com",
        "keywords": [
            "abstractions",
            "contracts",
            "decoupling",
            "interfaces",
            "interoperability",
            "standards"
        ]
    },
    {
        "name": "symfony/http-foundation",
        "version": "v4.4.15",
        "version_normalized": "4.4.15.0",
        "source": {
            "type": "git",
            "url": "https://github.com/symfony/http-foundation.git",
            "reference": "10683b407c3b6087c64619ebc97a87e36ea62c92"
        },
        "dist": {
            "type": "zip",
            "url": "https://api.github.com/repos/symfony/http-foundation/zipball/10683b407c3b6087c64619ebc97a87e36ea62c92",
            "reference": "10683b407c3b6087c64619ebc97a87e36ea62c92",
            "shasum": ""
        },
        "require": {
            "php": ">=7.1.3",
            "symfony/mime": "^4.3|^5.0",
            "symfony/polyfill-mbstring": "~1.1"
        },
        "require-dev": {
            "predis/predis": "~1.0",
            "symfony/expression-language": "^3.4|^4.0|^5.0"
        },
        "time": "2020-09-27T14:14:06+00:00",
        "type": "library",
        "extra": {
            "branch-alias": {
                "dev-master": "4.4-dev"
            }
        },
        "installation-source": "source",
        "autoload": {
            "psr-4": {
                "Symfony\\Component\\HttpFoundation\\": ""
            },
            "exclude-from-classmap": [
                "/Tests/"
            ]
        },
        "notification-url": "https://packagist.org/downloads/",
        "license": [
            "MIT"
        ],
        "authors": [
            {
                "name": "Fabien Potencier",
                "email": "fabien@symfony.com"
            },
            {
                "name": "Symfony Community",
                "homepage": "https://symfony.com/contributors"
            }
        ],
        "description": "Symfony HttpFoundation Component",
        "homepage": "https://symfony.com"
    },
    {
        "name": "symfony/http-kernel",
        "version": "v4.4.15",
        "version_normalized": "4.4.15.0",
        "source": {
            "type": "git",
            "url": "https://github.com/symfony/http-kernel.git",
            "reference": "6544745997b06c7dcecf0d4a70f09e5de1db7ca8"
        },
        "dist": {
            "type": "zip",
            "url": "https://api.github.com/repos/symfony/http-kernel/zipball/6544745997b06c7dcecf0d4a70f09e5de1db7ca8",
            "reference": "6544745997b06c7dcecf0d4a70f09e5de1db7ca8",
            "shasum": ""
        },
        "require": {
            "php": ">=7.1.3",
            "psr/log": "~1.0",
            "symfony/error-handler": "^4.4",
            "symfony/event-dispatcher": "^4.4",
            "symfony/http-client-contracts": "^1.1|^2",
            "symfony/http-foundation": "^4.4|^5.0",
            "symfony/polyfill-ctype": "^1.8",
            "symfony/polyfill-php73": "^1.9",
            "symfony/polyfill-php80": "^1.15"
        },
        "conflict": {
            "symfony/browser-kit": "<4.3",
            "symfony/config": "<3.4",
            "symfony/console": ">=5",
            "symfony/dependency-injection": "<4.3",
            "symfony/translation": "<4.2",
            "twig/twig": "<1.34|<2.4,>=2"
        },
        "provide": {
            "psr/log-implementation": "1.0"
        },
        "require-dev": {
            "psr/cache": "~1.0",
            "symfony/browser-kit": "^4.3|^5.0",
            "symfony/config": "^3.4|^4.0|^5.0",
            "symfony/console": "^3.4|^4.0",
            "symfony/css-selector": "^3.4|^4.0|^5.0",
            "symfony/dependency-injection": "^4.3|^5.0",
            "symfony/dom-crawler": "^3.4|^4.0|^5.0",
            "symfony/expression-language": "^3.4|^4.0|^5.0",
            "symfony/finder": "^3.4|^4.0|^5.0",
            "symfony/process": "^3.4|^4.0|^5.0",
            "symfony/routing": "^3.4|^4.0|^5.0",
            "symfony/stopwatch": "^3.4|^4.0|^5.0",
            "symfony/templating": "^3.4|^4.0|^5.0",
            "symfony/translation": "^4.2|^5.0",
            "symfony/translation-contracts": "^1.1|^2",
            "twig/twig": "^1.34|^2.4|^3.0"
        },
        "suggest": {
            "symfony/browser-kit": "",
            "symfony/config": "",
            "symfony/console": "",
            "symfony/dependency-injection": ""
        },
        "time": "2020-10-04T07:48:13+00:00",
        "type": "library",
        "extra": {
            "branch-alias": {
                "dev-master": "4.4-dev"
            }
        },
        "installation-source": "source",
        "autoload": {
            "psr-4": {
                "Symfony\\Component\\HttpKernel\\": ""
            },
            "exclude-from-classmap": [
                "/Tests/"
            ]
        },
        "notification-url": "https://packagist.org/downloads/",
        "license": [
            "MIT"
        ],
        "authors": [
            {
                "name": "Fabien Potencier",
                "email": "fabien@symfony.com"
            },
            {
                "name": "Symfony Community",
                "homepage": "https://symfony.com/contributors"
            }
        ],
        "description": "Symfony HttpKernel Component",
        "homepage": "https://symfony.com"
    },
    {
        "name": "symfony/mime",
        "version": "v5.1.7",
        "version_normalized": "5.1.7.0",
        "source": {
            "type": "git",
            "url": "https://github.com/symfony/mime.git",
            "reference": "4404d6545125863561721514ad9388db2661eec5"
        },
        "dist": {
            "type": "zip",
            "url": "https://api.github.com/repos/symfony/mime/zipball/4404d6545125863561721514ad9388db2661eec5",
            "reference": "4404d6545125863561721514ad9388db2661eec5",
            "shasum": ""
        },
        "require": {
            "php": ">=7.2.5",
            "symfony/polyfill-intl-idn": "^1.10",
            "symfony/polyfill-mbstring": "^1.0",
            "symfony/polyfill-php80": "^1.15"
        },
        "conflict": {
            "symfony/mailer": "<4.4"
        },
        "require-dev": {
            "egulias/email-validator": "^2.1.10",
            "symfony/dependency-injection": "^4.4|^5.0"
        },
        "time": "2020-09-02T16:23:27+00:00",
        "type": "library",
        "extra": {
            "branch-alias": {
                "dev-master": "5.1-dev"
            }
        },
        "installation-source": "source",
        "autoload": {
            "psr-4": {
                "Symfony\\Component\\Mime\\": ""
            },
            "exclude-from-classmap": [
                "/Tests/"
            ]
        },
        "notification-url": "https://packagist.org/downloads/",
        "license": [
            "MIT"
        ],
        "authors": [
            {
                "name": "Fabien Potencier",
                "email": "fabien@symfony.com"
            },
            {
                "name": "Symfony Community",
                "homepage": "https://symfony.com/contributors"
            }
        ],
        "description": "A library to manipulate MIME messages",
        "homepage": "https://symfony.com",
        "keywords": [
            "mime",
            "mime-type"
        ]
    },
    {
        "name": "symfony/polyfill-ctype",
        "version": "v1.18.1",
        "version_normalized": "1.18.1.0",
        "source": {
            "type": "git",
            "url": "https://github.com/symfony/polyfill-ctype.git",
            "reference": "1c302646f6efc070cd46856e600e5e0684d6b454"
        },
        "dist": {
            "type": "zip",
            "url": "https://api.github.com/repos/symfony/polyfill-ctype/zipball/1c302646f6efc070cd46856e600e5e0684d6b454",
            "reference": "1c302646f6efc070cd46856e600e5e0684d6b454",
            "shasum": ""
        },
        "require": {
            "php": ">=5.3.3"
        },
        "suggest": {
            "ext-ctype": "For best performance"
        },
        "time": "2020-07-14T12:35:20+00:00",
        "type": "library",
        "extra": {
            "branch-alias": {
                "dev-master": "1.18-dev"
            },
            "thanks": {
                "name": "symfony/polyfill",
                "url": "https://github.com/symfony/polyfill"
            }
        },
        "installation-source": "source",
        "autoload": {
            "psr-4": {
                "Symfony\\Polyfill\\Ctype\\": ""
            },
            "files": [
                "bootstrap.php"
            ]
        },
        "notification-url": "https://packagist.org/downloads/",
        "license": [
            "MIT"
        ],
        "authors": [
            {
                "name": "Gert de Pagter",
                "email": "BackEndTea@gmail.com"
            },
            {
                "name": "Symfony Community",
                "homepage": "https://symfony.com/contributors"
            }
        ],
        "description": "Symfony polyfill for ctype functions",
        "homepage": "https://symfony.com",
        "keywords": [
            "compatibility",
            "ctype",
            "polyfill",
            "portable"
        ]
    },
    {
        "name": "symfony/polyfill-iconv",
        "version": "v1.18.1",
        "version_normalized": "1.18.1.0",
        "source": {
            "type": "git",
            "url": "https://github.com/symfony/polyfill-iconv.git",
            "reference": "6c2f78eb8f5ab8eaea98f6d414a5915f2e0fce36"
        },
        "dist": {
            "type": "zip",
            "url": "https://api.github.com/repos/symfony/polyfill-iconv/zipball/6c2f78eb8f5ab8eaea98f6d414a5915f2e0fce36",
            "reference": "6c2f78eb8f5ab8eaea98f6d414a5915f2e0fce36",
            "shasum": ""
        },
        "require": {
            "php": ">=5.3.3"
        },
        "suggest": {
            "ext-iconv": "For best performance"
        },
        "time": "2020-07-14T12:35:20+00:00",
        "type": "library",
        "extra": {
            "branch-alias": {
                "dev-master": "1.18-dev"
            },
            "thanks": {
                "name": "symfony/polyfill",
                "url": "https://github.com/symfony/polyfill"
            }
        },
        "installation-source": "source",
        "autoload": {
            "psr-4": {
                "Symfony\\Polyfill\\Iconv\\": ""
            },
            "files": [
                "bootstrap.php"
            ]
        },
        "notification-url": "https://packagist.org/downloads/",
        "license": [
            "MIT"
        ],
        "authors": [
            {
                "name": "Nicolas Grekas",
                "email": "p@tchwork.com"
            },
            {
                "name": "Symfony Community",
                "homepage": "https://symfony.com/contributors"
            }
        ],
        "description": "Symfony polyfill for the Iconv extension",
        "homepage": "https://symfony.com",
        "keywords": [
            "compatibility",
            "iconv",
            "polyfill",
            "portable",
            "shim"
        ]
    },
    {
        "name": "symfony/polyfill-intl-idn",
        "version": "v1.18.1",
        "version_normalized": "1.18.1.0",
        "source": {
            "type": "git",
            "url": "https://github.com/symfony/polyfill-intl-idn.git",
            "reference": "5dcab1bc7146cf8c1beaa4502a3d9be344334251"
        },
        "dist": {
            "type": "zip",
            "url": "https://api.github.com/repos/symfony/polyfill-intl-idn/zipball/5dcab1bc7146cf8c1beaa4502a3d9be344334251",
            "reference": "5dcab1bc7146cf8c1beaa4502a3d9be344334251",
            "shasum": ""
        },
        "require": {
            "php": ">=5.3.3",
            "symfony/polyfill-intl-normalizer": "^1.10",
            "symfony/polyfill-php70": "^1.10",
            "symfony/polyfill-php72": "^1.10"
        },
        "suggest": {
            "ext-intl": "For best performance"
        },
        "time": "2020-08-04T06:02:08+00:00",
        "type": "library",
        "extra": {
            "branch-alias": {
                "dev-master": "1.18-dev"
            },
            "thanks": {
                "name": "symfony/polyfill",
                "url": "https://github.com/symfony/polyfill"
            }
        },
        "installation-source": "source",
        "autoload": {
            "psr-4": {
                "Symfony\\Polyfill\\Intl\\Idn\\": ""
            },
            "files": [
                "bootstrap.php"
            ]
        },
        "notification-url": "https://packagist.org/downloads/",
        "license": [
            "MIT"
        ],
        "authors": [
            {
                "name": "Laurent Bassin",
                "email": "laurent@bassin.info"
            },
            {
                "name": "Trevor Rowbotham",
                "email": "trevor.rowbotham@pm.me"
            },
            {
                "name": "Symfony Community",
                "homepage": "https://symfony.com/contributors"
            }
        ],
        "description": "Symfony polyfill for intl's idn_to_ascii and idn_to_utf8 functions",
        "homepage": "https://symfony.com",
        "keywords": [
            "compatibility",
            "idn",
            "intl",
            "polyfill",
            "portable",
            "shim"
        ]
    },
    {
        "name": "symfony/polyfill-intl-normalizer",
        "version": "v1.18.1",
        "version_normalized": "1.18.1.0",
        "source": {
            "type": "git",
            "url": "https://github.com/symfony/polyfill-intl-normalizer.git",
            "reference": "37078a8dd4a2a1e9ab0231af7c6cb671b2ed5a7e"
        },
        "dist": {
            "type": "zip",
            "url": "https://api.github.com/repos/symfony/polyfill-intl-normalizer/zipball/37078a8dd4a2a1e9ab0231af7c6cb671b2ed5a7e",
            "reference": "37078a8dd4a2a1e9ab0231af7c6cb671b2ed5a7e",
            "shasum": ""
        },
        "require": {
            "php": ">=5.3.3"
        },
        "suggest": {
            "ext-intl": "For best performance"
        },
        "time": "2020-07-14T12:35:20+00:00",
        "type": "library",
        "extra": {
            "branch-alias": {
                "dev-master": "1.18-dev"
            },
            "thanks": {
                "name": "symfony/polyfill",
                "url": "https://github.com/symfony/polyfill"
            }
        },
        "installation-source": "source",
        "autoload": {
            "psr-4": {
                "Symfony\\Polyfill\\Intl\\Normalizer\\": ""
            },
            "files": [
                "bootstrap.php"
            ],
            "classmap": [
                "Resources/stubs"
            ]
        },
        "notification-url": "https://packagist.org/downloads/",
        "license": [
            "MIT"
        ],
        "authors": [
            {
                "name": "Nicolas Grekas",
                "email": "p@tchwork.com"
            },
            {
                "name": "Symfony Community",
                "homepage": "https://symfony.com/contributors"
            }
        ],
        "description": "Symfony polyfill for intl's Normalizer class and related functions",
        "homepage": "https://symfony.com",
        "keywords": [
            "compatibility",
            "intl",
            "normalizer",
            "polyfill",
            "portable",
            "shim"
        ]
    },
    {
        "name": "symfony/polyfill-mbstring",
        "version": "v1.18.1",
        "version_normalized": "1.18.1.0",
        "source": {
            "type": "git",
            "url": "https://github.com/symfony/polyfill-mbstring.git",
            "reference": "a6977d63bf9a0ad4c65cd352709e230876f9904a"
        },
        "dist": {
            "type": "zip",
            "url": "https://api.github.com/repos/symfony/polyfill-mbstring/zipball/a6977d63bf9a0ad4c65cd352709e230876f9904a",
            "reference": "a6977d63bf9a0ad4c65cd352709e230876f9904a",
            "shasum": ""
        },
        "require": {
            "php": ">=5.3.3"
        },
        "suggest": {
            "ext-mbstring": "For best performance"
        },
        "time": "2020-07-14T12:35:20+00:00",
        "type": "library",
        "extra": {
            "branch-alias": {
                "dev-master": "1.18-dev"
            },
            "thanks": {
                "name": "symfony/polyfill",
                "url": "https://github.com/symfony/polyfill"
            }
        },
        "installation-source": "source",
        "autoload": {
            "psr-4": {
                "Symfony\\Polyfill\\Mbstring\\": ""
            },
            "files": [
                "bootstrap.php"
            ]
        },
        "notification-url": "https://packagist.org/downloads/",
        "license": [
            "MIT"
        ],
        "authors": [
            {
                "name": "Nicolas Grekas",
                "email": "p@tchwork.com"
            },
            {
                "name": "Symfony Community",
                "homepage": "https://symfony.com/contributors"
            }
        ],
        "description": "Symfony polyfill for the Mbstring extension",
        "homepage": "https://symfony.com",
        "keywords": [
            "compatibility",
            "mbstring",
            "polyfill",
            "portable",
            "shim"
        ]
    },
    {
        "name": "symfony/polyfill-php70",
        "version": "v1.18.1",
        "version_normalized": "1.18.1.0",
        "source": {
            "type": "git",
            "url": "https://github.com/symfony/polyfill-php70.git",
            "reference": "0dd93f2c578bdc9c72697eaa5f1dd25644e618d3"
        },
        "dist": {
            "type": "zip",
            "url": "https://api.github.com/repos/symfony/polyfill-php70/zipball/0dd93f2c578bdc9c72697eaa5f1dd25644e618d3",
            "reference": "0dd93f2c578bdc9c72697eaa5f1dd25644e618d3",
            "shasum": ""
        },
        "require": {
            "paragonie/random_compat": "~1.0|~2.0|~9.99",
            "php": ">=5.3.3"
        },
        "time": "2020-07-14T12:35:20+00:00",
        "type": "library",
        "extra": {
            "branch-alias": {
                "dev-master": "1.18-dev"
            },
            "thanks": {
                "name": "symfony/polyfill",
                "url": "https://github.com/symfony/polyfill"
            }
        },
        "installation-source": "source",
        "autoload": {
            "psr-4": {
                "Symfony\\Polyfill\\Php70\\": ""
            },
            "files": [
                "bootstrap.php"
            ],
            "classmap": [
                "Resources/stubs"
            ]
        },
        "notification-url": "https://packagist.org/downloads/",
        "license": [
            "MIT"
        ],
        "authors": [
            {
                "name": "Nicolas Grekas",
                "email": "p@tchwork.com"
            },
            {
                "name": "Symfony Community",
                "homepage": "https://symfony.com/contributors"
            }
        ],
        "description": "Symfony polyfill backporting some PHP 7.0+ features to lower PHP versions",
        "homepage": "https://symfony.com",
        "keywords": [
            "compatibility",
            "polyfill",
            "portable",
            "shim"
        ]
    },
    {
        "name": "symfony/polyfill-php72",
        "version": "v1.18.1",
        "version_normalized": "1.18.1.0",
        "source": {
            "type": "git",
            "url": "https://github.com/symfony/polyfill-php72.git",
            "reference": "639447d008615574653fb3bc60d1986d7172eaae"
        },
        "dist": {
            "type": "zip",
            "url": "https://api.github.com/repos/symfony/polyfill-php72/zipball/639447d008615574653fb3bc60d1986d7172eaae",
            "reference": "639447d008615574653fb3bc60d1986d7172eaae",
            "shasum": ""
        },
        "require": {
            "php": ">=5.3.3"
        },
        "time": "2020-07-14T12:35:20+00:00",
        "type": "library",
        "extra": {
            "branch-alias": {
                "dev-master": "1.18-dev"
            },
            "thanks": {
                "name": "symfony/polyfill",
                "url": "https://github.com/symfony/polyfill"
            }
        },
        "installation-source": "source",
        "autoload": {
            "psr-4": {
                "Symfony\\Polyfill\\Php72\\": ""
            },
            "files": [
                "bootstrap.php"
            ]
        },
        "notification-url": "https://packagist.org/downloads/",
        "license": [
            "MIT"
        ],
        "authors": [
            {
                "name": "Nicolas Grekas",
                "email": "p@tchwork.com"
            },
            {
                "name": "Symfony Community",
                "homepage": "https://symfony.com/contributors"
            }
        ],
        "description": "Symfony polyfill backporting some PHP 7.2+ features to lower PHP versions",
        "homepage": "https://symfony.com",
        "keywords": [
            "compatibility",
            "polyfill",
            "portable",
            "shim"
        ]
    },
    {
        "name": "symfony/polyfill-php73",
        "version": "v1.18.1",
        "version_normalized": "1.18.1.0",
        "source": {
            "type": "git",
            "url": "https://github.com/symfony/polyfill-php73.git",
            "reference": "fffa1a52a023e782cdcc221d781fe1ec8f87fcca"
        },
        "dist": {
            "type": "zip",
            "url": "https://api.github.com/repos/symfony/polyfill-php73/zipball/fffa1a52a023e782cdcc221d781fe1ec8f87fcca",
            "reference": "fffa1a52a023e782cdcc221d781fe1ec8f87fcca",
            "shasum": ""
        },
        "require": {
            "php": ">=5.3.3"
        },
        "time": "2020-07-14T12:35:20+00:00",
        "type": "library",
        "extra": {
            "branch-alias": {
                "dev-master": "1.18-dev"
            },
            "thanks": {
                "name": "symfony/polyfill",
                "url": "https://github.com/symfony/polyfill"
            }
        },
        "installation-source": "source",
        "autoload": {
            "psr-4": {
                "Symfony\\Polyfill\\Php73\\": ""
            },
            "files": [
                "bootstrap.php"
            ],
            "classmap": [
                "Resources/stubs"
            ]
        },
        "notification-url": "https://packagist.org/downloads/",
        "license": [
            "MIT"
        ],
        "authors": [
            {
                "name": "Nicolas Grekas",
                "email": "p@tchwork.com"
            },
            {
                "name": "Symfony Community",
                "homepage": "https://symfony.com/contributors"
            }
        ],
        "description": "Symfony polyfill backporting some PHP 7.3+ features to lower PHP versions",
        "homepage": "https://symfony.com",
        "keywords": [
            "compatibility",
            "polyfill",
            "portable",
            "shim"
        ]
    },
    {
        "name": "symfony/polyfill-php80",
        "version": "v1.18.1",
        "version_normalized": "1.18.1.0",
        "source": {
            "type": "git",
            "url": "https://github.com/symfony/polyfill-php80.git",
            "reference": "d87d5766cbf48d72388a9f6b85f280c8ad51f981"
        },
        "dist": {
            "type": "zip",
            "url": "https://api.github.com/repos/symfony/polyfill-php80/zipball/d87d5766cbf48d72388a9f6b85f280c8ad51f981",
            "reference": "d87d5766cbf48d72388a9f6b85f280c8ad51f981",
            "shasum": ""
        },
        "require": {
            "php": ">=7.0.8"
        },
        "time": "2020-07-14T12:35:20+00:00",
        "type": "library",
        "extra": {
            "branch-alias": {
                "dev-master": "1.18-dev"
            },
            "thanks": {
                "name": "symfony/polyfill",
                "url": "https://github.com/symfony/polyfill"
            }
        },
        "installation-source": "source",
        "autoload": {
            "psr-4": {
                "Symfony\\Polyfill\\Php80\\": ""
            },
            "files": [
                "bootstrap.php"
            ],
            "classmap": [
                "Resources/stubs"
            ]
        },
        "notification-url": "https://packagist.org/downloads/",
        "license": [
            "MIT"
        ],
        "authors": [
            {
                "name": "Ion Bazan",
                "email": "ion.bazan@gmail.com"
            },
            {
                "name": "Nicolas Grekas",
                "email": "p@tchwork.com"
            },
            {
                "name": "Symfony Community",
                "homepage": "https://symfony.com/contributors"
            }
        ],
        "description": "Symfony polyfill backporting some PHP 8.0+ features to lower PHP versions",
        "homepage": "https://symfony.com",
        "keywords": [
            "compatibility",
            "polyfill",
            "portable",
            "shim"
        ]
    },
    {
        "name": "symfony/process",
        "version": "v4.4.15",
        "version_normalized": "4.4.15.0",
        "source": {
            "type": "git",
            "url": "https://github.com/symfony/process.git",
            "reference": "9b887acc522935f77555ae8813495958c7771ba7"
        },
        "dist": {
            "type": "zip",
            "url": "https://api.github.com/repos/symfony/process/zipball/9b887acc522935f77555ae8813495958c7771ba7",
            "reference": "9b887acc522935f77555ae8813495958c7771ba7",
            "shasum": ""
        },
        "require": {
            "php": ">=7.1.3"
        },
        "time": "2020-09-02T16:08:58+00:00",
        "type": "library",
        "extra": {
            "branch-alias": {
                "dev-master": "4.4-dev"
            }
        },
        "installation-source": "source",
        "autoload": {
            "psr-4": {
                "Symfony\\Component\\Process\\": ""
            },
            "exclude-from-classmap": [
                "/Tests/"
            ]
        },
        "notification-url": "https://packagist.org/downloads/",
        "license": [
            "MIT"
        ],
        "authors": [
            {
                "name": "Fabien Potencier",
                "email": "fabien@symfony.com"
            },
            {
                "name": "Symfony Community",
                "homepage": "https://symfony.com/contributors"
            }
        ],
        "description": "Symfony Process Component",
        "homepage": "https://symfony.com"
    },
    {
        "name": "symfony/routing",
        "version": "v4.4.15",
        "version_normalized": "4.4.15.0",
        "source": {
            "type": "git",
            "url": "https://github.com/symfony/routing.git",
            "reference": "006b2d06672b8650998f328fc603eb6f3feb979f"
        },
        "dist": {
            "type": "zip",
            "url": "https://api.github.com/repos/symfony/routing/zipball/006b2d06672b8650998f328fc603eb6f3feb979f",
            "reference": "006b2d06672b8650998f328fc603eb6f3feb979f",
            "shasum": ""
        },
        "require": {
            "php": ">=7.1.3"
        },
        "conflict": {
            "symfony/config": "<4.2",
            "symfony/dependency-injection": "<3.4",
            "symfony/yaml": "<3.4"
        },
        "require-dev": {
            "doctrine/annotations": "~1.2",
            "psr/log": "~1.0",
            "symfony/config": "^4.2|^5.0",
            "symfony/dependency-injection": "^3.4|^4.0|^5.0",
            "symfony/expression-language": "^3.4|^4.0|^5.0",
            "symfony/http-foundation": "^3.4|^4.0|^5.0",
            "symfony/yaml": "^3.4|^4.0|^5.0"
        },
        "suggest": {
            "doctrine/annotations": "For using the annotation loader",
            "symfony/config": "For using the all-in-one router or any loader",
            "symfony/expression-language": "For using expression matching",
            "symfony/http-foundation": "For using a Symfony Request object",
            "symfony/yaml": "For using the YAML loader"
        },
        "time": "2020-10-01T16:25:17+00:00",
        "type": "library",
        "extra": {
            "branch-alias": {
                "dev-master": "4.4-dev"
            }
        },
        "installation-source": "source",
        "autoload": {
            "psr-4": {
                "Symfony\\Component\\Routing\\": ""
            },
            "exclude-from-classmap": [
                "/Tests/"
            ]
        },
        "notification-url": "https://packagist.org/downloads/",
        "license": [
            "MIT"
        ],
        "authors": [
            {
                "name": "Fabien Potencier",
                "email": "fabien@symfony.com"
            },
            {
                "name": "Symfony Community",
                "homepage": "https://symfony.com/contributors"
            }
        ],
        "description": "Symfony Routing Component",
        "homepage": "https://symfony.com",
        "keywords": [
            "router",
            "routing",
            "uri",
            "url"
        ]
    },
    {
        "name": "symfony/service-contracts",
        "version": "v2.2.0",
        "version_normalized": "2.2.0.0",
        "source": {
            "type": "git",
            "url": "https://github.com/symfony/service-contracts.git",
            "reference": "d15da7ba4957ffb8f1747218be9e1a121fd298a1"
        },
        "dist": {
            "type": "zip",
            "url": "https://api.github.com/repos/symfony/service-contracts/zipball/d15da7ba4957ffb8f1747218be9e1a121fd298a1",
            "reference": "d15da7ba4957ffb8f1747218be9e1a121fd298a1",
            "shasum": ""
        },
        "require": {
            "php": ">=7.2.5",
            "psr/container": "^1.0"
        },
        "suggest": {
            "symfony/service-implementation": ""
        },
        "time": "2020-09-07T11:33:47+00:00",
        "type": "library",
        "extra": {
            "branch-alias": {
                "dev-master": "2.2-dev"
            },
            "thanks": {
                "name": "symfony/contracts",
                "url": "https://github.com/symfony/contracts"
            }
        },
        "installation-source": "source",
        "autoload": {
            "psr-4": {
                "Symfony\\Contracts\\Service\\": ""
            }
        },
        "notification-url": "https://packagist.org/downloads/",
        "license": [
            "MIT"
        ],
        "authors": [
            {
                "name": "Nicolas Grekas",
                "email": "p@tchwork.com"
            },
            {
                "name": "Symfony Community",
                "homepage": "https://symfony.com/contributors"
            }
        ],
        "description": "Generic abstractions related to writing services",
        "homepage": "https://symfony.com",
        "keywords": [
            "abstractions",
            "contracts",
            "decoupling",
            "interfaces",
            "interoperability",
            "standards"
        ]
    },
    {
        "name": "symfony/translation",
        "version": "v4.4.15",
        "version_normalized": "4.4.15.0",
        "source": {
            "type": "git",
            "url": "https://github.com/symfony/translation.git",
            "reference": "8494fa1bbf9d77fe1e7d50ac8ccfb80a858a98bd"
        },
        "dist": {
            "type": "zip",
            "url": "https://api.github.com/repos/symfony/translation/zipball/8494fa1bbf9d77fe1e7d50ac8ccfb80a858a98bd",
            "reference": "8494fa1bbf9d77fe1e7d50ac8ccfb80a858a98bd",
            "shasum": ""
        },
        "require": {
            "php": ">=7.1.3",
            "symfony/polyfill-mbstring": "~1.0",
            "symfony/translation-contracts": "^1.1.6|^2"
        },
        "conflict": {
            "symfony/config": "<3.4",
            "symfony/dependency-injection": "<3.4",
            "symfony/http-kernel": "<4.4",
            "symfony/yaml": "<3.4"
        },
        "provide": {
            "symfony/translation-implementation": "1.0"
        },
        "require-dev": {
            "psr/log": "~1.0",
            "symfony/config": "^3.4|^4.0|^5.0",
            "symfony/console": "^3.4|^4.0|^5.0",
            "symfony/dependency-injection": "^3.4|^4.0|^5.0",
            "symfony/finder": "~2.8|~3.0|~4.0|^5.0",
            "symfony/http-kernel": "^4.4",
            "symfony/intl": "^3.4|^4.0|^5.0",
            "symfony/service-contracts": "^1.1.2|^2",
            "symfony/yaml": "^3.4|^4.0|^5.0"
        },
        "suggest": {
            "psr/log-implementation": "To use logging capability in translator",
            "symfony/config": "",
            "symfony/yaml": ""
        },
        "time": "2020-10-02T07:34:48+00:00",
        "type": "library",
        "extra": {
            "branch-alias": {
                "dev-master": "4.4-dev"
            }
        },
        "installation-source": "source",
        "autoload": {
            "psr-4": {
                "Symfony\\Component\\Translation\\": ""
            },
            "exclude-from-classmap": [
                "/Tests/"
            ]
        },
        "notification-url": "https://packagist.org/downloads/",
        "license": [
            "MIT"
        ],
        "authors": [
            {
                "name": "Fabien Potencier",
                "email": "fabien@symfony.com"
            },
            {
                "name": "Symfony Community",
                "homepage": "https://symfony.com/contributors"
            }
        ],
        "description": "Symfony Translation Component",
        "homepage": "https://symfony.com"
    },
    {
        "name": "symfony/translation-contracts",
        "version": "v2.3.0",
        "version_normalized": "2.3.0.0",
        "source": {
            "type": "git",
            "url": "https://github.com/symfony/translation-contracts.git",
            "reference": "e2eaa60b558f26a4b0354e1bbb25636efaaad105"
        },
        "dist": {
            "type": "zip",
            "url": "https://api.github.com/repos/symfony/translation-contracts/zipball/e2eaa60b558f26a4b0354e1bbb25636efaaad105",
            "reference": "e2eaa60b558f26a4b0354e1bbb25636efaaad105",
            "shasum": ""
        },
        "require": {
            "php": ">=7.2.5"
        },
        "suggest": {
            "symfony/translation-implementation": ""
        },
        "time": "2020-09-28T13:05:58+00:00",
        "type": "library",
        "extra": {
            "branch-alias": {
                "dev-master": "2.3-dev"
            },
            "thanks": {
                "name": "symfony/contracts",
                "url": "https://github.com/symfony/contracts"
            }
        },
        "installation-source": "source",
        "autoload": {
            "psr-4": {
                "Symfony\\Contracts\\Translation\\": ""
            }
        },
        "notification-url": "https://packagist.org/downloads/",
        "license": [
            "MIT"
        ],
        "authors": [
            {
                "name": "Nicolas Grekas",
                "email": "p@tchwork.com"
            },
            {
                "name": "Symfony Community",
                "homepage": "https://symfony.com/contributors"
            }
        ],
        "description": "Generic abstractions related to translation",
        "homepage": "https://symfony.com",
        "keywords": [
            "abstractions",
            "contracts",
            "decoupling",
            "interfaces",
            "interoperability",
            "standards"
        ]
    },
    {
        "name": "symfony/var-dumper",
        "version": "v4.4.15",
        "version_normalized": "4.4.15.0",
        "source": {
            "type": "git",
            "url": "https://github.com/symfony/var-dumper.git",
            "reference": "0dc22bdf9d1197467bb04d505355180b6f20bcca"
        },
        "dist": {
            "type": "zip",
            "url": "https://api.github.com/repos/symfony/var-dumper/zipball/0dc22bdf9d1197467bb04d505355180b6f20bcca",
            "reference": "0dc22bdf9d1197467bb04d505355180b6f20bcca",
            "shasum": ""
        },
        "require": {
            "php": ">=7.1.3",
            "symfony/polyfill-mbstring": "~1.0",
            "symfony/polyfill-php72": "~1.5",
            "symfony/polyfill-php80": "^1.15"
        },
        "conflict": {
            "phpunit/phpunit": "<4.8.35|<5.4.3,>=5.0",
            "symfony/console": "<3.4"
        },
        "require-dev": {
            "ext-iconv": "*",
            "symfony/console": "^3.4|^4.0|^5.0",
            "symfony/process": "^4.4|^5.0",
            "twig/twig": "^1.34|^2.4|^3.0"
        },
        "suggest": {
            "ext-iconv": "To convert non-UTF-8 strings to UTF-8 (or symfony/polyfill-iconv in case ext-iconv cannot be used).",
            "ext-intl": "To show region name in time zone dump",
            "symfony/console": "To use the ServerDumpCommand and/or the bin/var-dump-server script"
        },
        "time": "2020-09-18T08:35:10+00:00",
        "bin": [
            "Resources/bin/var-dump-server"
        ],
        "type": "library",
        "extra": {
            "branch-alias": {
                "dev-master": "4.4-dev"
            }
        },
        "installation-source": "source",
        "autoload": {
            "files": [
                "Resources/functions/dump.php"
            ],
            "psr-4": {
                "Symfony\\Component\\VarDumper\\": ""
            },
            "exclude-from-classmap": [
                "/Tests/"
            ]
        },
        "notification-url": "https://packagist.org/downloads/",
        "license": [
            "MIT"
        ],
        "authors": [
            {
                "name": "Nicolas Grekas",
                "email": "p@tchwork.com"
            },
            {
                "name": "Symfony Community",
                "homepage": "https://symfony.com/contributors"
            }
        ],
        "description": "Symfony mechanism for exploring and dumping PHP variables",
        "homepage": "https://symfony.com",
        "keywords": [
            "debug",
            "dump"
        ]
    },
    {
        "name": "tijsverkoyen/css-to-inline-styles",
        "version": "2.2.3",
        "version_normalized": "2.2.3.0",
        "source": {
            "type": "git",
            "url": "https://github.com/tijsverkoyen/CssToInlineStyles.git",
            "reference": "b43b05cf43c1b6d849478965062b6ef73e223bb5"
        },
        "dist": {
            "type": "zip",
            "url": "https://api.github.com/repos/tijsverkoyen/CssToInlineStyles/zipball/b43b05cf43c1b6d849478965062b6ef73e223bb5",
            "reference": "b43b05cf43c1b6d849478965062b6ef73e223bb5",
            "shasum": ""
        },
        "require": {
            "ext-dom": "*",
            "ext-libxml": "*",
            "php": "^5.5 || ^7.0 || ^8.0",
            "symfony/css-selector": "^2.7 || ^3.0 || ^4.0 || ^5.0"
        },
        "require-dev": {
            "phpunit/phpunit": "^4.8.35 || ^5.7 || ^6.0 || ^7.5"
        },
        "time": "2020-07-13T06:12:54+00:00",
        "type": "library",
        "extra": {
            "branch-alias": {
                "dev-master": "2.2.x-dev"
            }
        },
        "installation-source": "source",
        "autoload": {
            "psr-4": {
                "TijsVerkoyen\\CssToInlineStyles\\": "src"
            }
        },
        "notification-url": "https://packagist.org/downloads/",
        "license": [
            "BSD-3-Clause"
        ],
        "authors": [
            {
                "name": "Tijs Verkoyen",
                "email": "css_to_inline_styles@verkoyen.eu",
                "role": "Developer"
            }
        ],
        "description": "CssToInlineStyles is a class that enables you to convert HTML-pages/files into HTML-pages/files with inline styles. This is very useful when you're sending emails.",
        "homepage": "https://github.com/tijsverkoyen/CssToInlineStyles"
    },
    {
        "name": "vlucas/phpdotenv",
        "version": "v3.6.7",
        "version_normalized": "3.6.7.0",
        "source": {
            "type": "git",
            "url": "https://github.com/vlucas/phpdotenv.git",
            "reference": "2065beda6cbe75e2603686907b2e45f6f3a5ad82"
        },
        "dist": {
            "type": "zip",
            "url": "https://api.github.com/repos/vlucas/phpdotenv/zipball/2065beda6cbe75e2603686907b2e45f6f3a5ad82",
            "reference": "2065beda6cbe75e2603686907b2e45f6f3a5ad82",
            "shasum": ""
        },
        "require": {
            "php": "^5.4 || ^7.0 || ^8.0",
            "phpoption/phpoption": "^1.5.2",
            "symfony/polyfill-ctype": "^1.17"
        },
        "require-dev": {
            "ext-filter": "*",
            "ext-pcre": "*",
            "phpunit/phpunit": "^4.8.35 || ^5.7.27 || ^6.5.6 || ^7.0"
        },
        "suggest": {
            "ext-filter": "Required to use the boolean validator.",
            "ext-pcre": "Required to use most of the library."
        },
        "time": "2020-07-14T19:04:52+00:00",
        "type": "library",
        "extra": {
            "branch-alias": {
                "dev-master": "3.6-dev"
            }
        },
        "installation-source": "source",
        "autoload": {
            "psr-4": {
                "Dotenv\\": "src/"
            }
        },
        "notification-url": "https://packagist.org/downloads/",
        "license": [
            "BSD-3-Clause"
        ],
        "authors": [
            {
                "name": "Graham Campbell",
                "email": "graham@alt-three.com",
                "homepage": "https://gjcampbell.co.uk/"
            },
            {
                "name": "Vance Lucas",
                "email": "vance@vancelucas.com",
                "homepage": "https://vancelucas.com/"
            }
        ],
        "description": "Loads environment variables from `.env` to `getenv()`, `$_ENV` and `$_SERVER` automagically.",
        "keywords": [
            "dotenv",
            "env",
            "environment"
        ]
    }
]
