{
    "/assets/vendor/js/bootstrap.js": "/assets/vendor/js/bootstrap.js?id=db16f7318192a66c5e62",
    "/assets/vendor/css/appwork-material.css": "/assets/vendor/css/appwork-material.css?id=8978214513888b1abb3a",
    "/assets/vendor/css/appwork.css": "/assets/vendor/css/appwork.css?id=96d2a287ec09bf883807",
    "/assets/vendor/css/bootstrap-material.css": "/assets/vendor/css/bootstrap-material.css?id=6d133da9eb9797616013",
    "/assets/vendor/css/bootstrap.css": "/assets/vendor/css/bootstrap.css?id=9269134555fdab47e3bc",
    "/assets/vendor/css/colors-material.css": "/assets/vendor/css/colors-material.css?id=2f2a3b4eedbc6c78b86f",
    "/assets/vendor/css/colors.css": "/assets/vendor/css/colors.css?id=aae3a07191f581a53181",
    "/assets/vendor/css/migrate/appwork-130.css": "/assets/vendor/css/migrate/appwork-130.css?id=c88f382326f6fd86f7cc",
    "/assets/vendor/css/pages/account.css": "/assets/vendor/css/pages/account.css?id=eebf99597758771fe2db",
    "/assets/vendor/css/pages/authentication.css": "/assets/vendor/css/pages/authentication.css?id=3833fd6475590c61857b",
    "/assets/vendor/css/pages/chat.css": "/assets/vendor/css/pages/chat.css?id=17a4297d0608223144a8",
    "/assets/vendor/css/pages/clients.css": "/assets/vendor/css/pages/clients.css?id=ab4d3a5af9d5fe311ea7",
    "/assets/vendor/css/pages/contacts.css": "/assets/vendor/css/pages/contacts.css?id=ddc9f1a77f40bf7f520a",
    "/assets/vendor/css/pages/file-manager.css": "/assets/vendor/css/pages/file-manager.css?id=3cba3c151df706240c72",
    "/assets/vendor/css/pages/messages.css": "/assets/vendor/css/pages/messages.css?id=671673675f12ac4e04e7",
    "/assets/vendor/css/pages/products.css": "/assets/vendor/css/pages/products.css?id=c4161412c8646b82eef0",
    "/assets/vendor/css/pages/projects.css": "/assets/vendor/css/pages/projects.css?id=54fc1cdb9dc778030576",
    "/assets/vendor/css/pages/search.css": "/assets/vendor/css/pages/search.css?id=03db2249199810b4bdf8",
    "/assets/vendor/css/pages/tasks.css": "/assets/vendor/css/pages/tasks.css?id=1179b9e16bad8ae4097b",
    "/assets/vendor/css/pages/tickets.css": "/assets/vendor/css/pages/tickets.css?id=5106dbd616415fdd5e6c",
    "/assets/vendor/css/pages/users.css": "/assets/vendor/css/pages/users.css?id=8ef6171dad29cad78296",
    "/assets/vendor/css/rtl/appwork-material.css": "/assets/vendor/css/rtl/appwork-material.css?id=f34d106622a833e987de",
    "/assets/vendor/css/rtl/appwork.css": "/assets/vendor/css/rtl/appwork.css?id=3d9aa296a49a7efeb604",
    "/assets/vendor/css/rtl/bootstrap-material.css": "/assets/vendor/css/rtl/bootstrap-material.css?id=456202a7cbe0e4ee9413",
    "/assets/vendor/css/rtl/bootstrap.css": "/assets/vendor/css/rtl/bootstrap.css?id=cbf0a04bf36750b18e19",
    "/assets/vendor/css/rtl/colors-material.css": "/assets/vendor/css/rtl/colors-material.css?id=d6e55d9e170346b88272",
    "/assets/vendor/css/rtl/colors.css": "/assets/vendor/css/rtl/colors.css?id=aae3a07191f581a53181",
    "/assets/vendor/css/rtl/theme-air-material.css": "/assets/vendor/css/rtl/theme-air-material.css?id=e1bd13c246cc4db097be",
    "/assets/vendor/css/rtl/theme-air.css": "/assets/vendor/css/rtl/theme-air.css?id=fdfcba55ca51a56d1b0b",
    "/assets/vendor/css/rtl/theme-corporate-material.css": "/assets/vendor/css/rtl/theme-corporate-material.css?id=683bf7690db5287a472d",
    "/assets/vendor/css/rtl/theme-corporate.css": "/assets/vendor/css/rtl/theme-corporate.css?id=8ab0b28273cc6b41b6b7",
    "/assets/vendor/css/rtl/theme-cotton-material.css": "/assets/vendor/css/rtl/theme-cotton-material.css?id=bced41f727d18975d2ac",
    "/assets/vendor/css/rtl/theme-cotton.css": "/assets/vendor/css/rtl/theme-cotton.css?id=757f94ce7c47c69ad36e",
    "/assets/vendor/css/rtl/theme-gradient-material.css": "/assets/vendor/css/rtl/theme-gradient-material.css?id=352f643eb74321842bb8",
    "/assets/vendor/css/rtl/theme-gradient.css": "/assets/vendor/css/rtl/theme-gradient.css?id=30f8ff16ccbc761e807f",
    "/assets/vendor/css/rtl/theme-paper-material.css": "/assets/vendor/css/rtl/theme-paper-material.css?id=290b3587620f826e52c0",
    "/assets/vendor/css/rtl/theme-paper.css": "/assets/vendor/css/rtl/theme-paper.css?id=5b7661aff006fc59e815",
    "/assets/vendor/css/rtl/theme-shadow-material.css": "/assets/vendor/css/rtl/theme-shadow-material.css?id=6ca1a0e25c9dcae72217",
    "/assets/vendor/css/rtl/theme-shadow.css": "/assets/vendor/css/rtl/theme-shadow.css?id=a2302f667878902a8ae5",
    "/assets/vendor/css/rtl/theme-soft-material.css": "/assets/vendor/css/rtl/theme-soft-material.css?id=029a557758c73d0e4a77",
    "/assets/vendor/css/rtl/theme-soft.css": "/assets/vendor/css/rtl/theme-soft.css?id=585724dd3cc55159805f",
    "/assets/vendor/css/rtl/theme-sunrise-material.css": "/assets/vendor/css/rtl/theme-sunrise-material.css?id=3f2c0adea44739dd6b67",
    "/assets/vendor/css/rtl/theme-sunrise.css": "/assets/vendor/css/rtl/theme-sunrise.css?id=94dcbd39fa78cc4c62c7",
    "/assets/vendor/css/rtl/theme-twitlight-material.css": "/assets/vendor/css/rtl/theme-twitlight-material.css?id=e8dfcc5b0401fead5d7c",
    "/assets/vendor/css/rtl/theme-twitlight.css": "/assets/vendor/css/rtl/theme-twitlight.css?id=bb3df7f6ecb159df9a3c",
    "/assets/vendor/css/rtl/theme-vibrant-material.css": "/assets/vendor/css/rtl/theme-vibrant-material.css?id=e5b591d94f74da5a5888",
    "/assets/vendor/css/rtl/theme-vibrant.css": "/assets/vendor/css/rtl/theme-vibrant.css?id=dbbdfb2b2f7d837ccec7",
    "/assets/vendor/css/rtl/uikit.css": "/assets/vendor/css/rtl/uikit.css?id=4f488ddd0d583e83e7c3",
    "/assets/vendor/css/theme-air-material.css": "/assets/vendor/css/theme-air-material.css?id=e1bd13c246cc4db097be",
    "/assets/vendor/css/theme-air.css": "/assets/vendor/css/theme-air.css?id=fdfcba55ca51a56d1b0b",
    "/assets/vendor/css/theme-corporate-material.css": "/assets/vendor/css/theme-corporate-material.css?id=683bf7690db5287a472d",
    "/assets/vendor/css/theme-corporate.css": "/assets/vendor/css/theme-corporate.css?id=8ab0b28273cc6b41b6b7",
    "/assets/vendor/css/theme-cotton-material.css": "/assets/vendor/css/theme-cotton-material.css?id=bced41f727d18975d2ac",
    "/assets/vendor/css/theme-cotton.css": "/assets/vendor/css/theme-cotton.css?id=757f94ce7c47c69ad36e",
    "/assets/vendor/css/theme-gradient-material.css": "/assets/vendor/css/theme-gradient-material.css?id=352f643eb74321842bb8",
    "/assets/vendor/css/theme-gradient.css": "/assets/vendor/css/theme-gradient.css?id=30f8ff16ccbc761e807f",
    "/assets/vendor/css/theme-paper-material.css": "/assets/vendor/css/theme-paper-material.css?id=290b3587620f826e52c0",
    "/assets/vendor/css/theme-paper.css": "/assets/vendor/css/theme-paper.css?id=5b7661aff006fc59e815",
    "/assets/vendor/css/theme-shadow-material.css": "/assets/vendor/css/theme-shadow-material.css?id=6ca1a0e25c9dcae72217",
    "/assets/vendor/css/theme-shadow.css": "/assets/vendor/css/theme-shadow.css?id=a2302f667878902a8ae5",
    "/assets/vendor/css/theme-soft-material.css": "/assets/vendor/css/theme-soft-material.css?id=029a557758c73d0e4a77",
    "/assets/vendor/css/theme-soft.css": "/assets/vendor/css/theme-soft.css?id=585724dd3cc55159805f",
    "/assets/vendor/css/theme-sunrise-material.css": "/assets/vendor/css/theme-sunrise-material.css?id=3f2c0adea44739dd6b67",
    "/assets/vendor/css/theme-sunrise.css": "/assets/vendor/css/theme-sunrise.css?id=94dcbd39fa78cc4c62c7",
    "/assets/vendor/css/theme-twitlight-material.css": "/assets/vendor/css/theme-twitlight-material.css?id=e8dfcc5b0401fead5d7c",
    "/assets/vendor/css/theme-twitlight.css": "/assets/vendor/css/theme-twitlight.css?id=bb3df7f6ecb159df9a3c",
    "/assets/vendor/css/theme-vibrant-material.css": "/assets/vendor/css/theme-vibrant-material.css?id=e5b591d94f74da5a5888",
    "/assets/vendor/css/theme-vibrant.css": "/assets/vendor/css/theme-vibrant.css?id=dbbdfb2b2f7d837ccec7",
    "/assets/vendor/css/uikit.css": "/assets/vendor/css/uikit.css?id=4f488ddd0d583e83e7c3",
    "/assets/vendor/libs/animate-css/animate.css": "/assets/vendor/libs/animate-css/animate.css?id=44be3c0e7df8aef632a3",
    "/assets/vendor/libs/blueimp-gallery/gallery-indicator.css": "/assets/vendor/libs/blueimp-gallery/gallery-indicator.css?id=6f10e99716fc5f1ef344",
    "/assets/vendor/libs/blueimp-gallery/gallery-video.css": "/assets/vendor/libs/blueimp-gallery/gallery-video.css?id=17126df1086370087073",
    "/assets/vendor/libs/blueimp-gallery/gallery.css": "/assets/vendor/libs/blueimp-gallery/gallery.css?id=17ce2bcb1da775c2d492",
    "/assets/vendor/libs/bootstrap-datepicker/bootstrap-datepicker.css": "/assets/vendor/libs/bootstrap-datepicker/bootstrap-datepicker.css?id=7924be9ba4ad83123470",
    "/assets/vendor/libs/bootstrap-daterangepicker/bootstrap-daterangepicker.css": "/assets/vendor/libs/bootstrap-daterangepicker/bootstrap-daterangepicker.css?id=0a3cdd4070f99afbbcd2",
    "/assets/vendor/libs/bootstrap-duallistbox/bootstrap-duallistbox.css": "/assets/vendor/libs/bootstrap-duallistbox/bootstrap-duallistbox.css?id=2ee6f4abd273bfedcca8",
    "/assets/vendor/libs/bootstrap-markdown/bootstrap-markdown.css": "/assets/vendor/libs/bootstrap-markdown/bootstrap-markdown.css?id=22a87e3ace29cd49dea7",
    "/assets/vendor/libs/bootstrap-material-datetimepicker/bootstrap-material-datetimepicker.css": "/assets/vendor/libs/bootstrap-material-datetimepicker/bootstrap-material-datetimepicker.css?id=b8e3dbd1b6241fb43778",
    "/assets/vendor/libs/bootstrap-maxlength/bootstrap-maxlength.css": "/assets/vendor/libs/bootstrap-maxlength/bootstrap-maxlength.css?id=0cb44f4c017aad4fcbac",
    "/assets/vendor/libs/bootstrap-select/bootstrap-select.css": "/assets/vendor/libs/bootstrap-select/bootstrap-select.css?id=8cf38fd0dff7b295dd46",
    "/assets/vendor/libs/bootstrap-slider/bootstrap-slider.css": "/assets/vendor/libs/bootstrap-slider/bootstrap-slider.css?id=0dcaa4899ca167ad1e5d",
    "/assets/vendor/libs/bootstrap-sortable/bootstrap-sortable.css": "/assets/vendor/libs/bootstrap-sortable/bootstrap-sortable.css?id=352e9284ee3ff7b3cff5",
    "/assets/vendor/libs/bootstrap-table/bootstrap-table.css": "/assets/vendor/libs/bootstrap-table/bootstrap-table.css?id=67c4dd4a2b3d52887555",
    "/assets/vendor/libs/bootstrap-table/extensions/cell-input/cell-input.css": "/assets/vendor/libs/bootstrap-table/extensions/cell-input/cell-input.css?id=e9e9dc078dc8113300b5",
    "/assets/vendor/libs/bootstrap-table/extensions/filter-control/filter-control.css": "/assets/vendor/libs/bootstrap-table/extensions/filter-control/filter-control.css?id=f4a8ac2526ea462778d1",
    "/assets/vendor/libs/bootstrap-table/extensions/fixed-columns/fixed-columns.css": "/assets/vendor/libs/bootstrap-table/extensions/fixed-columns/fixed-columns.css?id=c60a87f281f0586adae5",
    "/assets/vendor/libs/bootstrap-table/extensions/group-by-v2/group-by-v2.css": "/assets/vendor/libs/bootstrap-table/extensions/group-by-v2/group-by-v2.css?id=7b615e97c190828d3ff1",
    "/assets/vendor/libs/bootstrap-table/extensions/page-jump-to/page-jump-to.css": "/assets/vendor/libs/bootstrap-table/extensions/page-jump-to/page-jump-to.css?id=17fe72e909239191a458",
    "/assets/vendor/libs/bootstrap-table/extensions/reorder-rows/reorder-rows.css": "/assets/vendor/libs/bootstrap-table/extensions/reorder-rows/reorder-rows.css?id=d68b4dbaf6bdfdd88b0d",
    "/assets/vendor/libs/bootstrap-table/extensions/sticky-header/sticky-header.css": "/assets/vendor/libs/bootstrap-table/extensions/sticky-header/sticky-header.css?id=b03e8a40fdb9928b0c1a",
    "/assets/vendor/libs/bootstrap-tagsinput/bootstrap-tagsinput.css": "/assets/vendor/libs/bootstrap-tagsinput/bootstrap-tagsinput.css?id=fd07ad25ded486bb59c3",
    "/assets/vendor/libs/c3/c3.css": "/assets/vendor/libs/c3/c3.css?id=f061f7937dc98bcb320b",
    "/assets/vendor/libs/chartist/chartist.css": "/assets/vendor/libs/chartist/chartist.css?id=eb4c7bc5335a4351bf8d",
    "/assets/vendor/libs/cropper/cropper.css": "/assets/vendor/libs/cropper/cropper.css?id=e961f27e729f93e2cbad",
    "/assets/vendor/libs/datatables/datatables.css": "/assets/vendor/libs/datatables/datatables.css?id=cc3030f99ca7100c5a45",
    "/assets/vendor/libs/dragula/dragula.css": "/assets/vendor/libs/dragula/dragula.css?id=ef4ea985f99830bd638f",
    "/assets/vendor/libs/dropzone/dropzone.css": "/assets/vendor/libs/dropzone/dropzone.css?id=86c0598f75733ddbee98",
    "/assets/vendor/libs/flatpickr/flatpickr.css": "/assets/vendor/libs/flatpickr/flatpickr.css?id=c353d2034ac1ab2159ec",
    "/assets/vendor/libs/flot/flot.css": "/assets/vendor/libs/flot/flot.css?id=14b1e6e4ed03e00ca826",
    "/assets/vendor/libs/flow-js/flow.css": "/assets/vendor/libs/flow-js/flow.css?id=a935aada04dac4020f95",
    "/assets/vendor/libs/fullcalendar/fullcalendar.css": "/assets/vendor/libs/fullcalendar/fullcalendar.css?id=2728b18a317555e2349e",
    "/assets/vendor/libs/growl/growl.css": "/assets/vendor/libs/growl/growl.css?id=52677831718cc4c49178",
    "/assets/vendor/libs/jstree/themes/default-dark/style.css": "/assets/vendor/libs/jstree/themes/default-dark/style.css?id=73d88522400222fe9b16",
    "/assets/vendor/libs/jstree/themes/default/style.css": "/assets/vendor/libs/jstree/themes/default/style.css?id=fe60160708e5cd3ccd8a",
    "/assets/vendor/libs/ladda/ladda.css": "/assets/vendor/libs/ladda/ladda.css?id=17452a9bb628b209eb3c",
    "/assets/vendor/libs/minicolors/minicolors.css": "/assets/vendor/libs/minicolors/minicolors.css?id=abfe3e23b67ae799a28a",
    "/assets/vendor/libs/morris/morris.css": "/assets/vendor/libs/morris/morris.css?id=fd85d4234da127babd1e",
    "/assets/vendor/libs/nestable/nestable.css": "/assets/vendor/libs/nestable/nestable.css?id=bdf3715e7862ee9e4b4e",
    "/assets/vendor/libs/nouislider/nouislider.css": "/assets/vendor/libs/nouislider/nouislider.css?id=db5aca875a50e1b23bab",
    "/assets/vendor/libs/perfect-scrollbar/perfect-scrollbar.css": "/assets/vendor/libs/perfect-scrollbar/perfect-scrollbar.css?id=81bafbcb3a719ebbb2de",
    "/assets/vendor/libs/photoswipe/photoswipe.css": "/assets/vendor/libs/photoswipe/photoswipe.css?id=d3e39d6a3df74df1082c",
    "/assets/vendor/libs/plyr/plyr.css": "/assets/vendor/libs/plyr/plyr.css?id=923f83cee66db7f921b6",
    "/assets/vendor/libs/quill/editor.css": "/assets/vendor/libs/quill/editor.css?id=0a0fecb0fcb49863ac61",
    "/assets/vendor/libs/quill/typography.css": "/assets/vendor/libs/quill/typography.css?id=a641dc6356376840a36b",
    "/assets/vendor/libs/select2/select2.css": "/assets/vendor/libs/select2/select2.css?id=a2cc73c8771f3c541dbc",
    "/assets/vendor/libs/shepherd/shepherd.css": "/assets/vendor/libs/shepherd/shepherd.css?id=6d91c8f4f530487a6c45",
    "/assets/vendor/libs/smartwizard/smartwizard.css": "/assets/vendor/libs/smartwizard/smartwizard.css?id=39d7b9782c97dd4ac638",
    "/assets/vendor/libs/spinkit/spinkit.css": "/assets/vendor/libs/spinkit/spinkit.css?id=c68dd377574fc20f1e14",
    "/assets/vendor/libs/sweetalert2/sweetalert2.css": "/assets/vendor/libs/sweetalert2/sweetalert2.css?id=dac3e1cb70994e452174",
    "/assets/vendor/libs/swiper/swiper.css": "/assets/vendor/libs/swiper/swiper.css?id=790b2bfeb268be717d7a",
    "/assets/vendor/libs/timepicker/timepicker.css": "/assets/vendor/libs/timepicker/timepicker.css?id=92010b9eda079888e602",
    "/assets/vendor/libs/toastr/toastr.css": "/assets/vendor/libs/toastr/toastr.css?id=df1954aa59fc93ba5e4d",
    "/assets/vendor/libs/typeahead-js/typeahead.css": "/assets/vendor/libs/typeahead-js/typeahead.css?id=2f7045532505113ed9cc",
    "/assets/vendor/libs/vegas/vegas.css": "/assets/vendor/libs/vegas/vegas.css?id=4cf56b5752b0909fee7b",
    "/assets/vendor/js/dropdown-hover.js": "/assets/vendor/js/dropdown-hover.js?id=753c1250a46cd3243be4",
    "/assets/vendor/js/layout-helpers.js": "/assets/vendor/js/layout-helpers.js?id=7b36c708be2ad98da117",
    "/assets/vendor/js/material-ripple.js": "/assets/vendor/js/material-ripple.js?id=8eec26509926585827af",
    "/assets/vendor/js/mega-dropdown.js": "/assets/vendor/js/mega-dropdown.js?id=5d72772a0b8cf1eebb03",
    "/assets/vendor/js/pace.js": "/assets/vendor/js/pace.js?id=ed2a757eeb65b967fd71",
    "/assets/vendor/js/polyfills.js": "/assets/vendor/js/polyfills.js?id=220fc336b21d87b699ab",
    "/assets/vendor/js/sidenav.js": "/assets/vendor/js/sidenav.js?id=dbea2301e8ee117c7770",
    "/assets/vendor/js/theme-settings.js": "/assets/vendor/js/theme-settings.js?id=e613eadd27544aed16af",
    "/assets/vendor/libs/autosize/autosize.js": "/assets/vendor/libs/autosize/autosize.js?id=f54f5daf09cf15a330c9",
    "/assets/vendor/libs/block-ui/block-ui.js": "/assets/vendor/libs/block-ui/block-ui.js?id=ff8e49a4eb965305acc0",
    "/assets/vendor/libs/blueimp-gallery/gallery.js": "/assets/vendor/libs/blueimp-gallery/gallery.js?id=a7de841ebfff16f2dbd2",
    "/assets/vendor/libs/blueimp-gallery/gallery-fullscreen.js": "/assets/vendor/libs/blueimp-gallery/gallery-fullscreen.js?id=2ba4f75784e39baa24cc",
    "/assets/vendor/libs/blueimp-gallery/gallery-indicator.js": "/assets/vendor/libs/blueimp-gallery/gallery-indicator.js?id=a71256174d5f48dbc920",
    "/assets/vendor/libs/blueimp-gallery/gallery-video.js": "/assets/vendor/libs/blueimp-gallery/gallery-video.js?id=a15b386dcbf9b32a32df",
    "/assets/vendor/libs/blueimp-gallery/gallery-vimeo.js": "/assets/vendor/libs/blueimp-gallery/gallery-vimeo.js?id=b7aa212e6cd6016d6880",
    "/assets/vendor/libs/blueimp-gallery/gallery-youtube.js": "/assets/vendor/libs/blueimp-gallery/gallery-youtube.js?id=a73c6ec6874802543dc0",
    "/assets/vendor/libs/blueimp-gallery/jquery.gallery.js": "/assets/vendor/libs/blueimp-gallery/jquery.gallery.js?id=8802896235111275aa2e",
    "/assets/vendor/libs/bootbox/bootbox.js": "/assets/vendor/libs/bootbox/bootbox.js?id=190c992d99b08bd8beb4",
    "/assets/vendor/libs/bootstrap-datepicker/bootstrap-datepicker.js": "/assets/vendor/libs/bootstrap-datepicker/bootstrap-datepicker.js?id=e054c55c2fd7e84039f3",
    "/assets/vendor/libs/bootstrap-daterangepicker/bootstrap-daterangepicker.js": "/assets/vendor/libs/bootstrap-daterangepicker/bootstrap-daterangepicker.js?id=85f6e46aa3dac60bdf17",
    "/assets/vendor/libs/bootstrap-duallistbox/bootstrap-duallistbox.js": "/assets/vendor/libs/bootstrap-duallistbox/bootstrap-duallistbox.js?id=84ca16920aec3bc8c361",
    "/assets/vendor/libs/bootstrap-markdown/bootstrap-markdown.js": "/assets/vendor/libs/bootstrap-markdown/bootstrap-markdown.js?id=e934c64931523b6fd20f",
    "/assets/vendor/libs/bootstrap-material-datetimepicker/_extension.js": "/assets/vendor/libs/bootstrap-material-datetimepicker/_extension.js?id=56dcd07e34b7ec2e5876",
    "/assets/vendor/libs/bootstrap-material-datetimepicker/bootstrap-material-datetimepicker.js": "/assets/vendor/libs/bootstrap-material-datetimepicker/bootstrap-material-datetimepicker.js?id=5c1206bfb58155e2e9c1",
    "/assets/vendor/libs/bootstrap-maxlength/bootstrap-maxlength.js": "/assets/vendor/libs/bootstrap-maxlength/bootstrap-maxlength.js?id=392ded65b5dfb7421800",
    "/assets/vendor/libs/bootstrap-menu/bootstrap-menu.js": "/assets/vendor/libs/bootstrap-menu/bootstrap-menu.js?id=853f100f565676f431f8",
    "/assets/vendor/libs/bootstrap-select/bootstrap-select.js": "/assets/vendor/libs/bootstrap-select/bootstrap-select.js?id=b522101190a57f8c3962",
    "/assets/vendor/libs/bootstrap-slider/bootstrap-slider.js": "/assets/vendor/libs/bootstrap-slider/bootstrap-slider.js?id=f4cbb371e6947760e4f1",
    "/assets/vendor/libs/bootstrap-sortable/bootstrap-sortable.js": "/assets/vendor/libs/bootstrap-sortable/bootstrap-sortable.js?id=86c579b6c5e12ac5fa8d",
    "/assets/vendor/libs/bootstrap-table/bootstrap-table.js": "/assets/vendor/libs/bootstrap-table/bootstrap-table.js?id=7f6a6d262944824abd50",
    "/assets/vendor/libs/bootstrap-table/extensions/accent-neutralise/accent-neutralise.js": "/assets/vendor/libs/bootstrap-table/extensions/accent-neutralise/accent-neutralise.js?id=29642b1a6b68d621b0a3",
    "/assets/vendor/libs/bootstrap-table/extensions/addrbar/addrbar.js": "/assets/vendor/libs/bootstrap-table/extensions/addrbar/addrbar.js?id=1f2cc3f5a278b73d7991",
    "/assets/vendor/libs/bootstrap-table/extensions/auto-refresh/auto-refresh.js": "/assets/vendor/libs/bootstrap-table/extensions/auto-refresh/auto-refresh.js?id=f3fda2220533ec8f0066",
    "/assets/vendor/libs/bootstrap-table/extensions/cell-input/cell-input.js": "/assets/vendor/libs/bootstrap-table/extensions/cell-input/cell-input.js?id=ac0e6573b4f987c6967d",
    "/assets/vendor/libs/bootstrap-table/extensions/cookie/cookie.js": "/assets/vendor/libs/bootstrap-table/extensions/cookie/cookie.js?id=4c1cc2745d90823d407b",
    "/assets/vendor/libs/bootstrap-table/extensions/copy-rows/copy-rows.js": "/assets/vendor/libs/bootstrap-table/extensions/copy-rows/copy-rows.js?id=14041c94441aeecb70c0",
    "/assets/vendor/libs/bootstrap-table/extensions/defer-url/defer-url.js": "/assets/vendor/libs/bootstrap-table/extensions/defer-url/defer-url.js?id=3d839b30d874c5782519",
    "/assets/vendor/libs/bootstrap-table/extensions/editable/editable.js": "/assets/vendor/libs/bootstrap-table/extensions/editable/editable.js?id=f3c3f7897661c7179ec2",
    "/assets/vendor/libs/bootstrap-table/extensions/export/export.js": "/assets/vendor/libs/bootstrap-table/extensions/export/export.js?id=1eb6b862c3ee1626f3f7",
    "/assets/vendor/libs/bootstrap-table/extensions/filter-control/filter-control.js": "/assets/vendor/libs/bootstrap-table/extensions/filter-control/filter-control.js?id=3e55cde278bf4170330e",
    "/assets/vendor/libs/bootstrap-table/extensions/fixed-columns/fixed-columns.js": "/assets/vendor/libs/bootstrap-table/extensions/fixed-columns/fixed-columns.js?id=6d99cb3db4aa5eed2084",
    "/assets/vendor/libs/bootstrap-table/extensions/group-by-v2/group-by-v2.js": "/assets/vendor/libs/bootstrap-table/extensions/group-by-v2/group-by-v2.js?id=caa093943d460f15b564",
    "/assets/vendor/libs/bootstrap-table/extensions/i18n-enhance/i18n-enhance.js": "/assets/vendor/libs/bootstrap-table/extensions/i18n-enhance/i18n-enhance.js?id=21989f5941a9c19bd04b",
    "/assets/vendor/libs/bootstrap-table/extensions/key-events/key-events.js": "/assets/vendor/libs/bootstrap-table/extensions/key-events/key-events.js?id=d0c5f957c8efc2e8c53d",
    "/assets/vendor/libs/bootstrap-table/extensions/mobile/mobile.js": "/assets/vendor/libs/bootstrap-table/extensions/mobile/mobile.js?id=5c64c15ad3fc38c0ecf6",
    "/assets/vendor/libs/bootstrap-table/extensions/multiple-sort/multiple-sort.js": "/assets/vendor/libs/bootstrap-table/extensions/multiple-sort/multiple-sort.js?id=48e884a86c70517b9519",
    "/assets/vendor/libs/bootstrap-table/extensions/natural-sorting/natural-sorting.js": "/assets/vendor/libs/bootstrap-table/extensions/natural-sorting/natural-sorting.js?id=10e4d27a1b5017fc4d82",
    "/assets/vendor/libs/bootstrap-table/extensions/page-jump-to/page-jump-to.js": "/assets/vendor/libs/bootstrap-table/extensions/page-jump-to/page-jump-to.js?id=364a2ed749b39bfc18c3",
    "/assets/vendor/libs/bootstrap-table/extensions/pipeline/pipeline.js": "/assets/vendor/libs/bootstrap-table/extensions/pipeline/pipeline.js?id=3b9da300fb37cae34b1e",
    "/assets/vendor/libs/bootstrap-table/extensions/print/print.js": "/assets/vendor/libs/bootstrap-table/extensions/print/print.js?id=d2d360f775753428ad29",
    "/assets/vendor/libs/bootstrap-table/extensions/reorder-columns/reorder-columns.js": "/assets/vendor/libs/bootstrap-table/extensions/reorder-columns/reorder-columns.js?id=51f18f5a07b19a3895b0",
    "/assets/vendor/libs/bootstrap-table/extensions/reorder-rows/reorder-rows.js": "/assets/vendor/libs/bootstrap-table/extensions/reorder-rows/reorder-rows.js?id=8057e71926b23350a70e",
    "/assets/vendor/libs/bootstrap-table/extensions/resizable/resizable.js": "/assets/vendor/libs/bootstrap-table/extensions/resizable/resizable.js?id=f643fabbccab1844c721",
    "/assets/vendor/libs/bootstrap-table/extensions/sticky-header/sticky-header.js": "/assets/vendor/libs/bootstrap-table/extensions/sticky-header/sticky-header.js?id=6eace94a6b7c6afd867d",
    "/assets/vendor/libs/bootstrap-table/extensions/toolbar/toolbar.js": "/assets/vendor/libs/bootstrap-table/extensions/toolbar/toolbar.js?id=4dc0a69e443f43891a71",
    "/assets/vendor/libs/bootstrap-table/extensions/treegrid/treegrid.js": "/assets/vendor/libs/bootstrap-table/extensions/treegrid/treegrid.js?id=5c93fd7fabd8784d4608",
    "/assets/vendor/libs/bootstrap-tagsinput/_extension.js": "/assets/vendor/libs/bootstrap-tagsinput/_extension.js?id=01d49073a6fd19e39a5e",
    "/assets/vendor/libs/bootstrap-tagsinput/bootstrap-tagsinput.js": "/assets/vendor/libs/bootstrap-tagsinput/bootstrap-tagsinput.js?id=dabaf316dc2165fc840b",
    "/assets/vendor/libs/c3/c3.js": "/assets/vendor/libs/c3/c3.js?id=ee6d4dd833bdfaea8eaa",
    "/assets/vendor/libs/chartist/chartist.js": "/assets/vendor/libs/chartist/chartist.js?id=59bb82f0445849aea172",
    "/assets/vendor/libs/chartjs/chartjs.js": "/assets/vendor/libs/chartjs/chartjs.js?id=6b4bb109712225c5fc44",
    "/assets/vendor/libs/clipboard/clipboard.js": "/assets/vendor/libs/clipboard/clipboard.js?id=0e5bdb5c35afb09bf09d",
    "/assets/vendor/libs/cropper/cropper.js": "/assets/vendor/libs/cropper/cropper.js?id=9e9af50f6a1dc97088b2",
    "/assets/vendor/libs/d3/d3.js": "/assets/vendor/libs/d3/d3.js?id=7d3a7c9a5c99cfcd3ffa",
    "/assets/vendor/libs/datatables/datatables.js": "/assets/vendor/libs/datatables/datatables.js?id=ebf45c4d7d27cae4d41c",
    "/assets/vendor/libs/dragula/dragula.js": "/assets/vendor/libs/dragula/dragula.js?id=19221a1333dd14fb1947",
    "/assets/vendor/libs/dropzone/dropzone.js": "/assets/vendor/libs/dropzone/dropzone.js?id=f8fb07a445cb7a0ce64c",
    "/assets/vendor/libs/eve/eve.js": "/assets/vendor/libs/eve/eve.js?id=ff060ee2b9cce171330b",
    "/assets/vendor/libs/flatpickr/flatpickr.js": "/assets/vendor/libs/flatpickr/flatpickr.js?id=88cd5332d74d66a0b911",
    "/assets/vendor/libs/flot/flot.js": "/assets/vendor/libs/flot/flot.js?id=ab22fc51b34dac23ae50",
    "/assets/vendor/libs/flot/tooltip.js": "/assets/vendor/libs/flot/tooltip.js?id=f70bccff80d6ab01244e",
    "/assets/vendor/libs/flow-js/flow.js": "/assets/vendor/libs/flow-js/flow.js?id=b96f0a0f930a391b4c38",
    "/assets/vendor/libs/fullcalendar/fullcalendar.js": "/assets/vendor/libs/fullcalendar/fullcalendar.js?id=31b0b67349e5a0cacc96",
    "/assets/vendor/libs/fullcalendar/locale-all.js": "/assets/vendor/libs/fullcalendar/locale-all.js?id=9acd987e85c53ca52450",
    "/assets/vendor/libs/gmaps/gmaps.js": "/assets/vendor/libs/gmaps/gmaps.js?id=fb542c20eb0e2b5f6fc4",
    "/assets/vendor/libs/growl/growl.js": "/assets/vendor/libs/growl/growl.js?id=adf40a5f46eed92cb779",
    "/assets/vendor/libs/idletimer/idletimer.js": "/assets/vendor/libs/idletimer/idletimer.js?id=129f4de4a872fb087acc",
    "/assets/vendor/libs/jstree/jstree.js": "/assets/vendor/libs/jstree/jstree.js?id=8b3363d5f06bb4ea2477",
    "/assets/vendor/libs/knob/knob.js": "/assets/vendor/libs/knob/knob.js?id=8b1fae9e49c38fefb8ab",
    "/assets/vendor/libs/ladda/ladda.js": "/assets/vendor/libs/ladda/ladda.js?id=ebce28b6b9bcf99e14b1",
    "/assets/vendor/libs/mapael/mapael.js": "/assets/vendor/libs/mapael/mapael.js?id=81dbb08fb19353b3705e",
    "/assets/vendor/libs/mapael/maps/france_departments.js": "/assets/vendor/libs/mapael/maps/france_departments.js?id=883fbb8a18a239e29ad5",
    "/assets/vendor/libs/mapael/maps/usa_states.js": "/assets/vendor/libs/mapael/maps/usa_states.js?id=81f9bf7aa68f841d21f7",
    "/assets/vendor/libs/mapael/maps/world_countries.js": "/assets/vendor/libs/mapael/maps/world_countries.js?id=f78ebb1d429c980e6c6c",
    "/assets/vendor/libs/mapael/maps/world_countries_mercator.js": "/assets/vendor/libs/mapael/maps/world_countries_mercator.js?id=f83df004122223c98ec7",
    "/assets/vendor/libs/mapael/maps/world_countries_miller.js": "/assets/vendor/libs/mapael/maps/world_countries_miller.js?id=843d7455c88336be16af",
    "/assets/vendor/libs/markdown/markdown.js": "/assets/vendor/libs/markdown/markdown.js?id=b3624a451f2db4609294",
    "/assets/vendor/libs/masonry/masonry.js": "/assets/vendor/libs/masonry/masonry.js?id=dff6c66601c5d1e7f822",
    "/assets/vendor/libs/minicolors/minicolors.js": "/assets/vendor/libs/minicolors/minicolors.js?id=7e5790876d96c2aaa52e",
    "/assets/vendor/libs/moment/moment.js": "/assets/vendor/libs/moment/moment.js?id=f8120c465d8b9a977df7",
    "/assets/vendor/libs/morris/morris.js": "/assets/vendor/libs/morris/morris.js?id=1c8fb6ce1c369f2c27a4",
    "/assets/vendor/libs/nestable/nestable.js": "/assets/vendor/libs/nestable/nestable.js?id=b206759656e88eb14222",
    "/assets/vendor/libs/nouislider/nouislider.js": "/assets/vendor/libs/nouislider/nouislider.js?id=ef63361848c51ea1c828",
    "/assets/vendor/libs/numeral/numeral.js": "/assets/vendor/libs/numeral/numeral.js?id=2840f7a012e7511bc5c9",
    "/assets/vendor/libs/perfect-scrollbar/perfect-scrollbar.js": "/assets/vendor/libs/perfect-scrollbar/perfect-scrollbar.js?id=8a15644ff72760b4d41b",
    "/assets/vendor/libs/photoswipe/photoswipe.js": "/assets/vendor/libs/photoswipe/photoswipe.js?id=5426b96e53c29a09d7de",
    "/assets/vendor/libs/plyr/plyr.js": "/assets/vendor/libs/plyr/plyr.js?id=e099e8f75f527af289ca",
    "/assets/vendor/libs/popper/popper.js": "/assets/vendor/libs/popper/popper.js?id=c84ea90bceb3d7dc1a23",
    "/assets/vendor/libs/pwstrength-bootstrap/pwstrength-bootstrap.js": "/assets/vendor/libs/pwstrength-bootstrap/pwstrength-bootstrap.js?id=6aae49cb530270ec3653",
    "/assets/vendor/libs/quill/quill.js": "/assets/vendor/libs/quill/quill.js?id=9a2ea031d7c1ab01ffd3",
    "/assets/vendor/libs/raphael/raphael.js": "/assets/vendor/libs/raphael/raphael.js?id=35984fc49e57b92605ab",
    "/assets/vendor/libs/select2/select2.js": "/assets/vendor/libs/select2/select2.js?id=c4a5278e89d12189fb9f",
    "/assets/vendor/libs/shepherd/shepherd.js": "/assets/vendor/libs/shepherd/shepherd.js?id=dd1ec49a971ee70cfa5e",
    "/assets/vendor/libs/smartwizard/smartwizard.js": "/assets/vendor/libs/smartwizard/smartwizard.js?id=4f76675d9dc8718e2d13",
    "/assets/vendor/libs/sortablejs/sortable.js": "/assets/vendor/libs/sortablejs/sortable.js?id=96cc920f25a61eb8a400",
    "/assets/vendor/libs/sparkline/_extension.js": "/assets/vendor/libs/sparkline/_extension.js?id=2605a0c8284c9492a8e4",
    "/assets/vendor/libs/sparkline/sparkline.js": "/assets/vendor/libs/sparkline/sparkline.js?id=6097edf0c8f30dffd8c2",
    "/assets/vendor/libs/spin/spin.js": "/assets/vendor/libs/spin/spin.js?id=b2ec1dbe8549a4f94055",
    "/assets/vendor/libs/sweetalert2/sweetalert2.js": "/assets/vendor/libs/sweetalert2/sweetalert2.js?id=2cb991d51a3883dce5f3",
    "/assets/vendor/libs/swiper/swiper.js": "/assets/vendor/libs/swiper/swiper.js?id=efac6398bf19ce106f85",
    "/assets/vendor/libs/tableexport/tableexport.js": "/assets/vendor/libs/tableexport/tableexport.js?id=7e50073be5ff71a26a83",
    "/assets/vendor/libs/timepicker/timepicker.js": "/assets/vendor/libs/timepicker/timepicker.js?id=05418f4299cecc4b94e8",
    "/assets/vendor/libs/toastr/toastr.js": "/assets/vendor/libs/toastr/toastr.js?id=968f3b55b55eae83813c",
    "/assets/vendor/libs/typeahead-js/typeahead.js": "/assets/vendor/libs/typeahead-js/typeahead.js?id=d8dd65a86a2c0603db5b",
    "/assets/vendor/libs/validate/validate.js": "/assets/vendor/libs/validate/validate.js?id=313ad20a7ee07cfdb3fc",
    "/assets/vendor/libs/vanilla-text-mask/text-mask-addons.js": "/assets/vendor/libs/vanilla-text-mask/text-mask-addons.js?id=1626f5869403e39259c3",
    "/assets/vendor/libs/vanilla-text-mask/vanilla-text-mask.js": "/assets/vendor/libs/vanilla-text-mask/vanilla-text-mask.js?id=01e917cf416369793e20",
    "/assets/vendor/libs/vegas/_extension.js": "/assets/vendor/libs/vegas/_extension.js?id=e41644c596ed225bb66c",
    "/assets/vendor/libs/vegas/vegas.js": "/assets/vendor/libs/vegas/vegas.js?id=880586d99132a792634a",
    "/assets/vendor/fonts/fontawesome.css": "/assets/vendor/fonts/fontawesome.css?id=f82eaa13bb4fd1615797",
    "/assets/vendor/fonts/ionicons.css": "/assets/vendor/fonts/ionicons.css?id=fbc926d0d97a02c47fa7",
    "/assets/vendor/fonts/linearicons.css": "/assets/vendor/fonts/linearicons.css?id=9a2987f556bfaa568a2a",
    "/assets/vendor/fonts/open-iconic.css": "/assets/vendor/fonts/open-iconic.css?id=43aa2f1de48d1a1be2d0",
    "/assets/vendor/fonts/pe-icon-7-stroke.css": "/assets/vendor/fonts/pe-icon-7-stroke.css?id=dc26a41697dc31d3297d",
    "/assets/vendor/fonts/fontawesome/fa-brands-400.eot": "/assets/vendor/fonts/fontawesome/fa-brands-400.eot?id=8e5be116f022537b1a9e",
    "/assets/vendor/fonts/fontawesome/fa-brands-400.svg": "/assets/vendor/fonts/fontawesome/fa-brands-400.svg?id=575f579783279183e047",
    "/assets/vendor/fonts/fontawesome/fa-brands-400.ttf": "/assets/vendor/fonts/fontawesome/fa-brands-400.ttf?id=58b0c10e000748053f4f",
    "/assets/vendor/fonts/fontawesome/fa-brands-400.woff": "/assets/vendor/fonts/fontawesome/fa-brands-400.woff?id=6b5bf8cfb4951b248fca",
    "/assets/vendor/fonts/fontawesome/fa-brands-400.woff2": "/assets/vendor/fonts/fontawesome/fa-brands-400.woff2?id=902ad63c93778bbbe204",
    "/assets/vendor/fonts/fontawesome/fa-regular-400.eot": "/assets/vendor/fonts/fontawesome/fa-regular-400.eot?id=ee0263af0da6ecd32089",
    "/assets/vendor/fonts/fontawesome/fa-regular-400.svg": "/assets/vendor/fonts/fontawesome/fa-regular-400.svg?id=251662c979749ba1b44c",
    "/assets/vendor/fonts/fontawesome/fa-regular-400.ttf": "/assets/vendor/fonts/fontawesome/fa-regular-400.ttf?id=016791d53ce3f03441c3",
    "/assets/vendor/fonts/fontawesome/fa-regular-400.woff": "/assets/vendor/fonts/fontawesome/fa-regular-400.woff?id=b5766fa5183261faf025",
    "/assets/vendor/fonts/fontawesome/fa-regular-400.woff2": "/assets/vendor/fonts/fontawesome/fa-regular-400.woff2?id=03aa5f7048ece9f8c555",
    "/assets/vendor/fonts/fontawesome/fa-solid-900.eot": "/assets/vendor/fonts/fontawesome/fa-solid-900.eot?id=06dad1090bf968e59107",
    "/assets/vendor/fonts/fontawesome/fa-solid-900.svg": "/assets/vendor/fonts/fontawesome/fa-solid-900.svg?id=34713e5ffae547002760",
    "/assets/vendor/fonts/fontawesome/fa-solid-900.ttf": "/assets/vendor/fonts/fontawesome/fa-solid-900.ttf?id=9d5a3dcfd0e683e476a4",
    "/assets/vendor/fonts/fontawesome/fa-solid-900.woff": "/assets/vendor/fonts/fontawesome/fa-solid-900.woff?id=c640f3305d6baed26d81",
    "/assets/vendor/fonts/fontawesome/fa-solid-900.woff2": "/assets/vendor/fonts/fontawesome/fa-solid-900.woff2?id=743423887f20ef541bdf",
    "/assets/vendor/fonts/ionicons/ionicons.eot": "/assets/vendor/fonts/ionicons/ionicons.eot?id=7c5cd790981df8ad4c02",
    "/assets/vendor/fonts/ionicons/ionicons.svg": "/assets/vendor/fonts/ionicons/ionicons.svg?id=71148788db809df3496f",
    "/assets/vendor/fonts/ionicons/ionicons.ttf": "/assets/vendor/fonts/ionicons/ionicons.ttf?id=1a569411662997e2b849",
    "/assets/vendor/fonts/ionicons/ionicons.woff": "/assets/vendor/fonts/ionicons/ionicons.woff?id=57c34e413a7ff3503354",
    "/assets/vendor/fonts/ionicons/ionicons.woff2": "/assets/vendor/fonts/ionicons/ionicons.woff2?id=9a80c12757705b51eb8a",
    "/assets/vendor/fonts/linearicons/Linearicons-Free.eot": "/assets/vendor/fonts/linearicons/Linearicons-Free.eot?id=7b72309f7fab12e0c188",
    "/assets/vendor/fonts/linearicons/Linearicons-Free.svg": "/assets/vendor/fonts/linearicons/Linearicons-Free.svg?id=fb9ed10858b2625b61bd",
    "/assets/vendor/fonts/linearicons/Linearicons-Free.ttf": "/assets/vendor/fonts/linearicons/Linearicons-Free.ttf?id=f2f253ebf3515a812e91",
    "/assets/vendor/fonts/linearicons/Linearicons-Free.woff": "/assets/vendor/fonts/linearicons/Linearicons-Free.woff?id=5e3e200505fc8c59be31",
    "/assets/vendor/fonts/linearicons/Linearicons-Free.woff2": "/assets/vendor/fonts/linearicons/Linearicons-Free.woff2?id=e5240b31e930efb46871",
    "/assets/vendor/fonts/open-iconic/open-iconic.eot": "/assets/vendor/fonts/open-iconic/open-iconic.eot?id=12e0048c17015001b24d",
    "/assets/vendor/fonts/open-iconic/open-iconic.otf": "/assets/vendor/fonts/open-iconic/open-iconic.otf?id=2abff499cb698b5196aa",
    "/assets/vendor/fonts/open-iconic/open-iconic.svg": "/assets/vendor/fonts/open-iconic/open-iconic.svg?id=8217b7ac84b409b12968",
    "/assets/vendor/fonts/open-iconic/open-iconic.ttf": "/assets/vendor/fonts/open-iconic/open-iconic.ttf?id=257ea4bb2a58e9a1d2f1",
    "/assets/vendor/fonts/open-iconic/open-iconic.woff": "/assets/vendor/fonts/open-iconic/open-iconic.woff?id=fd20c1cd3c9abfabe0ba",
    "/assets/vendor/fonts/pe-icon-7-stroke/Pe-icon-7-stroke.eot": "/assets/vendor/fonts/pe-icon-7-stroke/Pe-icon-7-stroke.eot?id=dc784df262dfe00ad4e9",
    "/assets/vendor/fonts/pe-icon-7-stroke/Pe-icon-7-stroke.svg": "/assets/vendor/fonts/pe-icon-7-stroke/Pe-icon-7-stroke.svg?id=529c3da8f21edf912d26",
    "/assets/vendor/fonts/pe-icon-7-stroke/Pe-icon-7-stroke.ttf": "/assets/vendor/fonts/pe-icon-7-stroke/Pe-icon-7-stroke.ttf?id=23f2d673dcd7b6ba52bd",
    "/assets/vendor/fonts/pe-icon-7-stroke/Pe-icon-7-stroke.woff": "/assets/vendor/fonts/pe-icon-7-stroke/Pe-icon-7-stroke.woff?id=85499d365c0c2ce3ad9d",
    "/assets/js/app.js": "/assets/js/app.js?id=52e86ab2523673d3f0a4",
    "/assets/js/charts_c3.js": "/assets/js/charts_c3.js?id=70977fb227e9b299b7f9",
    "/assets/js/charts_chartist.js": "/assets/js/charts_chartist.js?id=373774a82f6fcd006cc0",
    "/assets/js/charts_chartjs.js": "/assets/js/charts_chartjs.js?id=461d39b75fcd711f7f0f",
    "/assets/js/charts_flot.js": "/assets/js/charts_flot.js?id=6ada74c6a41b74fa0e80",
    "/assets/js/charts_gmaps.js": "/assets/js/charts_gmaps.js?id=17907649d73a4eccf3dc",
    "/assets/js/charts_mapael.js": "/assets/js/charts_mapael.js?id=87b757543642bd643fe9",
    "/assets/js/charts_morrisjs.js": "/assets/js/charts_morrisjs.js?id=b6b5b7bc02fb064ce5c4",
    "/assets/js/charts_sparkline.js": "/assets/js/charts_sparkline.js?id=998ca1f154478dfeb5da",
    "/assets/js/dashboards_dashboard-1.js": "/assets/js/dashboards_dashboard-1.js?id=efee481169315da5f1e4",
    "/assets/js/dashboards_dashboard-2.js": "/assets/js/dashboards_dashboard-2.js?id=f4d95c32c4e9c909fa72",
    "/assets/js/dashboards_dashboard-3.js": "/assets/js/dashboards_dashboard-3.js?id=e915954ae70a38075278",
    "/assets/js/dashboards_dashboard-4.js": "/assets/js/dashboards_dashboard-4.js?id=30a664e2ce01db29bd37",
    "/assets/js/dashboards_dashboard-5.js": "/assets/js/dashboards_dashboard-5.js?id=a379ad3a20016da808ad",
    "/assets/js/demo.js": "/assets/js/demo.js?id=963e3cf419204fa27ff3",
    "/assets/js/forms_custom-controls.js": "/assets/js/forms_custom-controls.js?id=2ba809f535cf124759d2",
    "/assets/js/forms_dual-listbox.js": "/assets/js/forms_dual-listbox.js?id=94d22ae2423a87f9773d",
    "/assets/js/forms_editors.js": "/assets/js/forms_editors.js?id=facdac36cc5e9bac0251",
    "/assets/js/forms_extras.js": "/assets/js/forms_extras.js?id=4166a3d0d6aa68911cfe",
    "/assets/js/forms_file-upload.js": "/assets/js/forms_file-upload.js?id=78306315e6baf649497c",
    "/assets/js/forms_input-groups.js": "/assets/js/forms_input-groups.js?id=335189e6da8b99df64ef",
    "/assets/js/forms_pickers.js": "/assets/js/forms_pickers.js?id=901cc6293c0554c7785e",
    "/assets/js/forms_selects.js": "/assets/js/forms_selects.js?id=c5d94663e1a9535e50a5",
    "/assets/js/forms_sliders.js": "/assets/js/forms_sliders.js?id=0b826e8d036e252a30b6",
    "/assets/js/forms_typeahead.js": "/assets/js/forms_typeahead.js?id=fb85ab58c3e93e8b127a",
    "/assets/js/forms_validation.js": "/assets/js/forms_validation.js?id=15541a961e66a4702b01",
    "/assets/js/forms_wizard.js": "/assets/js/forms_wizard.js?id=4f81f8377be9c2be8e17",
    "/assets/js/ghana_post.js": "/assets/js/ghana_post.js?id=d41d8cd98f00b204e980",
    "/assets/js/layouts.js": "/assets/js/layouts.js?id=148d65455ecb05cf212b",
    "/assets/js/misc_blockui.js": "/assets/js/misc_blockui.js?id=ade177b5717ff2a035ac",
    "/assets/js/misc_clipboardjs.js": "/assets/js/misc_clipboardjs.js?id=9f5661ddf431d303d6a4",
    "/assets/js/misc_idle-timer.js": "/assets/js/misc_idle-timer.js?id=a576ae61771685e4cd60",
    "/assets/js/misc_ladda.js": "/assets/js/misc_ladda.js?id=5b493f5b8cb18653a1ac",
    "/assets/js/misc_masonry.js": "/assets/js/misc_masonry.js?id=622b6b5db9a9cd1e4217",
    "/assets/js/misc_numeraljs.js": "/assets/js/misc_numeraljs.js?id=b9742e60df5910f52399",
    "/assets/js/misc_perfect-scrollbar.js": "/assets/js/misc_perfect-scrollbar.js?id=0af3c669ba2e4c4ff7a7",
    "/assets/js/misc_vegasjs.js": "/assets/js/misc_vegasjs.js?id=1bbbcad13de74fcd493d",
    "/assets/js/pages_account-settings.js": "/assets/js/pages_account-settings.js?id=ef7eb4d3de347203bdd4",
    "/assets/js/pages_articles_edit.js": "/assets/js/pages_articles_edit.js?id=8516952658aab5a83f2b",
    "/assets/js/pages_articles_list.js": "/assets/js/pages_articles_list.js?id=f85660e670ce343d2ddc",
    "/assets/js/pages_chat.js": "/assets/js/pages_chat.js?id=2d7f170ad9bc00019b5d",
    "/assets/js/pages_clients.js": "/assets/js/pages_clients.js?id=bd135a7e7acd0f0dfd74",
    "/assets/js/pages_contacts.js": "/assets/js/pages_contacts.js?id=26e1ffd415a0195522c5",
    "/assets/js/pages_e-commerce_order-list.js": "/assets/js/pages_e-commerce_order-list.js?id=5eef52188276ba8afa97",
    "/assets/js/pages_e-commerce_product-edit.js": "/assets/js/pages_e-commerce_product-edit.js?id=b675faae7f6d56236658",
    "/assets/js/pages_e-commerce_product-item.js": "/assets/js/pages_e-commerce_product-item.js?id=e13b9f6eeb936af15318",
    "/assets/js/pages_e-commerce_product-list.js": "/assets/js/pages_e-commerce_product-list.js?id=6ca3216cf57d9b99033f",
    "/assets/js/pages_file-manager.js": "/assets/js/pages_file-manager.js?id=5fb93ebff65d03d49142",
    "/assets/js/pages_gallery.js": "/assets/js/pages_gallery.js?id=09fe33f312e93e784988",
    "/assets/js/pages_kanban-board.js": "/assets/js/pages_kanban-board.js?id=8aed94ed6e86d14524f3",
    "/assets/js/pages_messages.js": "/assets/js/pages_messages.js?id=4f9bcd5b03eb78b94105",
    "/assets/js/pages_projects_item.js": "/assets/js/pages_projects_item.js?id=399a1bb76d9e0a0c69df",
    "/assets/js/pages_projects_list.js": "/assets/js/pages_projects_list.js?id=2386424214fb7ef4865a",
    "/assets/js/pages_task-list.js": "/assets/js/pages_task-list.js?id=bf3ec2ca8b74b9455556",
    "/assets/js/pages_teams.js": "/assets/js/pages_teams.js?id=e750d6c5abaf85429fc0",
    "/assets/js/pages_tickets_edit.js": "/assets/js/pages_tickets_edit.js?id=bd373dc966b2e619591c",
    "/assets/js/pages_tickets_list.js": "/assets/js/pages_tickets_list.js?id=cbb75a5e435c70c586ba",
    "/assets/js/pages_users_edit.js": "/assets/js/pages_users_edit.js?id=3fdb2a1a79cf84be0592",
    "/assets/js/pages_users_list.js": "/assets/js/pages_users_list.js?id=67c958c90abc022346be",
    "/assets/js/pages_vacancies.js": "/assets/js/pages_vacancies.js?id=8a88fd695c9e2ae3fb60",
    "/assets/js/quiz/bootstrap.min.js": "/assets/js/quiz/bootstrap.min.js?id=d061ab58270e692309b7",
    "/assets/js/quiz/form-step.js": "/assets/js/quiz/form-step.js?id=b49e8426ee220e2aa7ac",
    "/assets/js/quiz/jquery-3.3.1.min.js": "/assets/js/quiz/jquery-3.3.1.min.js?id=b0dc11d0a434aafe8890",
    "/assets/js/quiz/jquery.validate.min.js": "/assets/js/quiz/jquery.validate.min.js?id=76a37a768c28904716b9",
    "/assets/js/quiz/main.js": "/assets/js/quiz/main.js?id=5be27ce71396b37df063",
    "/assets/js/quiz/owl.carousel.min.js": "/assets/js/quiz/owl.carousel.min.js?id=db4c9c39a3af93438421",
    "/assets/js/quiz/popper.min.js": "/assets/js/quiz/popper.min.js?id=b1dbc64f8b1dfe0c089d",
    "/assets/js/tables_bootstrap-table.js": "/assets/js/tables_bootstrap-table.js?id=72b70ea48dfd7374affa",
    "/assets/js/tables_datatables.js": "/assets/js/tables_datatables.js?id=bf7e911c90fe46ecdac0",
    "/assets/js/ui_app-brand.js": "/assets/js/ui_app-brand.js?id=0f4e592d134bad968f37",
    "/assets/js/ui_button-groups.js": "/assets/js/ui_button-groups.js?id=b92a73d560936ffd5e40",
    "/assets/js/ui_carousel.js": "/assets/js/ui_carousel.js?id=975831924de1ec3931df",
    "/assets/js/ui_cropper.js": "/assets/js/ui_cropper.js?id=8134fa51fbfe62450dfa",
    "/assets/js/ui_drag-and-drop.js": "/assets/js/ui_drag-and-drop.js?id=82e2eb69e8dc9db8e831",
    "/assets/js/ui_dropdowns.js": "/assets/js/ui_dropdowns.js?id=318f6324e776254c260e",
    "/assets/js/ui_fullcalendar.js": "/assets/js/ui_fullcalendar.js?id=9c13f01d5bd52625e169",
    "/assets/js/ui_lightbox.js": "/assets/js/ui_lightbox.js?id=ca1b1f6bb51cdedc9113",
    "/assets/js/ui_media-player.js": "/assets/js/ui_media-player.js?id=ac55f9e8ec85a38290cd",
    "/assets/js/ui_modals.js": "/assets/js/ui_modals.js?id=05f42afbc01eb3cd916a",
    "/assets/js/ui_navbar.js": "/assets/js/ui_navbar.js?id=d3ccf556a3d7c1d43024",
    "/assets/js/ui_navs.js": "/assets/js/ui_navs.js?id=19aab08e72c235448b39",
    "/assets/js/ui_notifications.js": "/assets/js/ui_notifications.js?id=76619dc05437d4c19baf",
    "/assets/js/ui_sidenav.js": "/assets/js/ui_sidenav.js?id=11a3040185f20ae96cab",
    "/assets/js/ui_tooltips.js": "/assets/js/ui_tooltips.js?id=7c8f817d7e2f071e2f31",
    "/assets/js/ui_tour.js": "/assets/js/ui_tour.js?id=16a7cc9b364bca507419",
    "/assets/js/ui_treeview.js": "/assets/js/ui_treeview.js?id=4ddb78592a44b9672a12",
    "/assetsjs/app.js": "/assetsjs/app.js?id=6ad9b12f6f25ff3c382d",
    "/assetsjs/bootstrap.js": "/assetsjs/bootstrap.js?id=9c0e7241764014e822a6",
    "/assets/css/animate.min.css": "/assets/css/animate.min.css?id=e520d6ed0ef7253a04ed",
    "/assets/css/bootstrap.min.css": "/assets/css/bootstrap.min.css?id=416bb9e03b223eba66e9",
    "/assets/css/demo.css": "/assets/css/demo.css?id=f49308a2995430f714de",
    "/assets/css/fontawesome-all.css": "/assets/css/fontawesome-all.css?id=23768749e0b0e7914d6d",
    "/assets/css/owl.carousel.css": "/assets/css/owl.carousel.css?id=09fd7b101aacabf9c3e8",
    "/assets/css/style.css": "/assets/css/style.css?id=f8b34c0f24d1e3a4c902"
}
